(['D:\\chess AI\\BigProject\\Chess\\Main.py'],
 ['D:\\chess AI\\BigProject', 'D:\\chess AI\\BigProject\\Chess'],
 ['codecs'],
 ['c:\\users\\admin\\appdata\\local\\programs\\python\\python38\\lib\\site-packages\\_pyinstaller_hooks_contrib\\hooks\\stdhooks',
  'c:\\users\\admin\\appdata\\local\\programs\\python\\python38\\lib\\site-packages\\_pyinstaller_hooks_contrib\\hooks\\stdhooks\\__pycache__',
  'c:\\users\\admin\\appdata\\local\\programs\\python\\python38\\lib\\site-packages\\_pyinstaller_hooks_contrib\\hooks\\rthooks',
  'c:\\users\\admin\\appdata\\local\\programs\\python\\python38\\lib\\site-packages\\_pyinstaller_hooks_contrib\\hooks\\rthooks\\__pycache__',
  'c:\\users\\admin\\appdata\\local\\programs\\python\\python38\\lib\\site-packages\\_pyinstaller_hooks_contrib\\hooks',
  'C:\\Users\\Admin\\AppData\\Roaming\\Python\\Python38\\site-packages\\pygame\\__pyinstaller'],
 {},
 [],
 [],
 False,
 False,
 False,
 '3.8.6 (tags/v3.8.6:db45529, Sep 23 2020, 15:52:53) [MSC v.1927 64 bit '
 '(AMD64)]',
 [('pyi_rth_pkgutil',
   'C:\\Users\\Admin\\AppData\\Local\\Programs\\Python\\Python38\\Lib\\site-packages\\PyInstaller\\hooks\\rthooks\\pyi_rth_pkgutil.py',
   'PYSOURCE'),
  ('pyi_rth_multiprocessing',
   'C:\\Users\\Admin\\AppData\\Local\\Programs\\Python\\Python38\\Lib\\site-packages\\PyInstaller\\hooks\\rthooks\\pyi_rth_multiprocessing.py',
   'PYSOURCE'),
  ('pyi_rth_inspect',
   'C:\\Users\\Admin\\AppData\\Local\\Programs\\Python\\Python38\\Lib\\site-packages\\PyInstaller\\hooks\\rthooks\\pyi_rth_inspect.py',
   'PYSOURCE'),
  ('pyi_rth_pkgres',
   'C:\\Users\\Admin\\AppData\\Local\\Programs\\Python\\Python38\\Lib\\site-packages\\PyInstaller\\hooks\\rthooks\\pyi_rth_pkgres.py',
   'PYSOURCE'),
  ('pyi_rth_win32api',
   'C:\\Users\\Admin\\AppData\\Local\\Programs\\Python\\Python38\\Lib\\site-packages\\PyInstaller\\hooks\\rthooks\\pyi_rth_win32api.py',
   'PYSOURCE'),
  ('pyi_rth_win32comgenpy',
   'C:\\Users\\Admin\\AppData\\Local\\Programs\\Python\\Python38\\Lib\\site-packages\\PyInstaller\\hooks\\rthooks\\pyi_rth_win32comgenpy.py',
   'PYSOURCE'),
  ('Main', 'D:\\chess AI\\BigProject\\Chess\\Main.py', 'PYSOURCE')],
 [('win32com',
   'c:\\users\\admin\\appdata\\local\\programs\\python\\python38\\lib\\site-packages\\win32com\\__init__.py',
   'PYMODULE'),
  ('win32com.server.util',
   'c:\\users\\admin\\appdata\\local\\programs\\python\\python38\\lib\\site-packages\\win32com\\server\\util.py',
   'PYMODULE'),
  ('win32com.server.dispatcher',
   'c:\\users\\admin\\appdata\\local\\programs\\python\\python38\\lib\\site-packages\\win32com\\server\\dispatcher.py',
   'PYMODULE'),
  ('win32traceutil',
   'c:\\users\\admin\\appdata\\local\\programs\\python\\python38\\lib\\site-packages\\win32\\lib\\win32traceutil.py',
   'PYMODULE'),
  ('win32com.util',
   'c:\\users\\admin\\appdata\\local\\programs\\python\\python38\\lib\\site-packages\\win32com\\util.py',
   'PYMODULE'),
  ('win32con',
   'c:\\users\\admin\\appdata\\local\\programs\\python\\python38\\lib\\site-packages\\win32\\lib\\win32con.py',
   'PYMODULE'),
  ('win32com.server.exception',
   'c:\\users\\admin\\appdata\\local\\programs\\python\\python38\\lib\\site-packages\\win32com\\server\\exception.py',
   'PYMODULE'),
  ('winerror',
   'c:\\users\\admin\\appdata\\local\\programs\\python\\python38\\lib\\site-packages\\win32\\lib\\winerror.py',
   'PYMODULE'),
  ('win32com.server.policy',
   'c:\\users\\admin\\appdata\\local\\programs\\python\\python38\\lib\\site-packages\\win32com\\server\\policy.py',
   'PYMODULE'),
  ('win32com.client',
   'c:\\users\\admin\\appdata\\local\\programs\\python\\python38\\lib\\site-packages\\win32com\\client\\__init__.py',
   'PYMODULE'),
  ('win32com.client.makepy',
   'c:\\users\\admin\\appdata\\local\\programs\\python\\python38\\lib\\site-packages\\win32com\\client\\makepy.py',
   'PYMODULE'),
  ('getopt',
   'c:\\users\\admin\\appdata\\local\\programs\\python\\python38\\lib\\getopt.py',
   'PYMODULE'),
  ('gettext',
   'c:\\users\\admin\\appdata\\local\\programs\\python\\python38\\lib\\gettext.py',
   'PYMODULE'),
  ('copy',
   'c:\\users\\admin\\appdata\\local\\programs\\python\\python38\\lib\\copy.py',
   'PYMODULE'),
  ('struct',
   'c:\\users\\admin\\appdata\\local\\programs\\python\\python38\\lib\\struct.py',
   'PYMODULE'),
  ('pywin.dialogs.status',
   'c:\\users\\admin\\appdata\\local\\programs\\python\\python38\\lib\\site-packages\\Pythonwin\\pywin\\dialogs\\status.py',
   'PYMODULE'),
  ('_strptime',
   'c:\\users\\admin\\appdata\\local\\programs\\python\\python38\\lib\\_strptime.py',
   'PYMODULE'),
  ('datetime',
   'c:\\users\\admin\\appdata\\local\\programs\\python\\python38\\lib\\datetime.py',
   'PYMODULE'),
  ('calendar',
   'c:\\users\\admin\\appdata\\local\\programs\\python\\python38\\lib\\calendar.py',
   'PYMODULE'),
  ('argparse',
   'c:\\users\\admin\\appdata\\local\\programs\\python\\python38\\lib\\argparse.py',
   'PYMODULE'),
  ('textwrap',
   'c:\\users\\admin\\appdata\\local\\programs\\python\\python38\\lib\\textwrap.py',
   'PYMODULE'),
  ('threading',
   'c:\\users\\admin\\appdata\\local\\programs\\python\\python38\\lib\\threading.py',
   'PYMODULE'),
  ('_threading_local',
   'c:\\users\\admin\\appdata\\local\\programs\\python\\python38\\lib\\_threading_local.py',
   'PYMODULE'),
  ('contextlib',
   'c:\\users\\admin\\appdata\\local\\programs\\python\\python38\\lib\\contextlib.py',
   'PYMODULE'),
  ('pywin.mfc.thread',
   'c:\\users\\admin\\appdata\\local\\programs\\python\\python38\\lib\\site-packages\\Pythonwin\\pywin\\mfc\\thread.py',
   'PYMODULE'),
  ('pywin.mfc.object',
   'c:\\users\\admin\\appdata\\local\\programs\\python\\python38\\lib\\site-packages\\Pythonwin\\pywin\\mfc\\object.py',
   'PYMODULE'),
  ('pywin.mfc.dialog',
   'c:\\users\\admin\\appdata\\local\\programs\\python\\python38\\lib\\site-packages\\Pythonwin\\pywin\\mfc\\dialog.py',
   'PYMODULE'),
  ('pywin.mfc.window',
   'c:\\users\\admin\\appdata\\local\\programs\\python\\python38\\lib\\site-packages\\Pythonwin\\pywin\\mfc\\window.py',
   'PYMODULE'),
  ('pywin.mfc',
   'c:\\users\\admin\\appdata\\local\\programs\\python\\python38\\lib\\site-packages\\Pythonwin\\pywin\\mfc\\__init__.py',
   'PYMODULE'),
  ('pywin.dialogs',
   'c:\\users\\admin\\appdata\\local\\programs\\python\\python38\\lib\\site-packages\\Pythonwin\\pywin\\dialogs\\__init__.py',
   'PYMODULE'),
  ('pywin',
   'c:\\users\\admin\\appdata\\local\\programs\\python\\python38\\lib\\site-packages\\Pythonwin\\pywin\\__init__.py',
   'PYMODULE'),
  ('importlib',
   'c:\\users\\admin\\appdata\\local\\programs\\python\\python38\\lib\\importlib\\__init__.py',
   'PYMODULE'),
  ('importlib._bootstrap_external',
   'c:\\users\\admin\\appdata\\local\\programs\\python\\python38\\lib\\importlib\\_bootstrap_external.py',
   'PYMODULE'),
  ('importlib.metadata',
   'c:\\users\\admin\\appdata\\local\\programs\\python\\python38\\lib\\importlib\\metadata.py',
   'PYMODULE'),
  ('configparser',
   'c:\\users\\admin\\appdata\\local\\programs\\python\\python38\\lib\\configparser.py',
   'PYMODULE'),
  ('posixpath',
   'c:\\users\\admin\\appdata\\local\\programs\\python\\python38\\lib\\posixpath.py',
   'PYMODULE'),
  ('genericpath',
   'c:\\users\\admin\\appdata\\local\\programs\\python\\python38\\lib\\genericpath.py',
   'PYMODULE'),
  ('stat',
   'c:\\users\\admin\\appdata\\local\\programs\\python\\python38\\lib\\stat.py',
   'PYMODULE'),
  ('zipfile',
   'c:\\users\\admin\\appdata\\local\\programs\\python\\python38\\lib\\zipfile.py',
   'PYMODULE'),
  ('py_compile',
   'c:\\users\\admin\\appdata\\local\\programs\\python\\python38\\lib\\py_compile.py',
   'PYMODULE'),
  ('ntpath',
   'c:\\users\\admin\\appdata\\local\\programs\\python\\python38\\lib\\ntpath.py',
   'PYMODULE'),
  ('string',
   'c:\\users\\admin\\appdata\\local\\programs\\python\\python38\\lib\\string.py',
   'PYMODULE'),
  ('importlib.machinery',
   'c:\\users\\admin\\appdata\\local\\programs\\python\\python38\\lib\\importlib\\machinery.py',
   'PYMODULE'),
  ('lzma',
   'c:\\users\\admin\\appdata\\local\\programs\\python\\python38\\lib\\lzma.py',
   'PYMODULE'),
  ('_compression',
   'c:\\users\\admin\\appdata\\local\\programs\\python\\python38\\lib\\_compression.py',
   'PYMODULE'),
  ('bz2',
   'c:\\users\\admin\\appdata\\local\\programs\\python\\python38\\lib\\bz2.py',
   'PYMODULE'),
  ('importlib.util',
   'c:\\users\\admin\\appdata\\local\\programs\\python\\python38\\lib\\importlib\\util.py',
   'PYMODULE'),
  ('pathlib',
   'c:\\users\\admin\\appdata\\local\\programs\\python\\python38\\lib\\pathlib.py',
   'PYMODULE'),
  ('urllib.parse',
   'c:\\users\\admin\\appdata\\local\\programs\\python\\python38\\lib\\urllib\\parse.py',
   'PYMODULE'),
  ('urllib',
   'c:\\users\\admin\\appdata\\local\\programs\\python\\python38\\lib\\urllib\\__init__.py',
   'PYMODULE'),
  ('fnmatch',
   'c:\\users\\admin\\appdata\\local\\programs\\python\\python38\\lib\\fnmatch.py',
   'PYMODULE'),
  ('email',
   'c:\\users\\admin\\appdata\\local\\programs\\python\\python38\\lib\\email\\__init__.py',
   'PYMODULE'),
  ('email.parser',
   'c:\\users\\admin\\appdata\\local\\programs\\python\\python38\\lib\\email\\parser.py',
   'PYMODULE'),
  ('email._policybase',
   'c:\\users\\admin\\appdata\\local\\programs\\python\\python38\\lib\\email\\_policybase.py',
   'PYMODULE'),
  ('email.utils',
   'c:\\users\\admin\\appdata\\local\\programs\\python\\python38\\lib\\email\\utils.py',
   'PYMODULE'),
  ('email._parseaddr',
   'c:\\users\\admin\\appdata\\local\\programs\\python\\python38\\lib\\email\\_parseaddr.py',
   'PYMODULE'),
  ('socket',
   'c:\\users\\admin\\appdata\\local\\programs\\python\\python38\\lib\\socket.py',
   'PYMODULE'),
  ('selectors',
   'c:\\users\\admin\\appdata\\local\\programs\\python\\python38\\lib\\selectors.py',
   'PYMODULE'),
  ('random',
   'c:\\users\\admin\\appdata\\local\\programs\\python\\python38\\lib\\random.py',
   'PYMODULE'),
  ('hashlib',
   'c:\\users\\admin\\appdata\\local\\programs\\python\\python38\\lib\\hashlib.py',
   'PYMODULE'),
  ('logging',
   'c:\\users\\admin\\appdata\\local\\programs\\python\\python38\\lib\\logging\\__init__.py',
   'PYMODULE'),
  ('pickle',
   'c:\\users\\admin\\appdata\\local\\programs\\python\\python38\\lib\\pickle.py',
   'PYMODULE'),
  ('pprint',
   'c:\\users\\admin\\appdata\\local\\programs\\python\\python38\\lib\\pprint.py',
   'PYMODULE'),
  ('doctest',
   'c:\\users\\admin\\appdata\\local\\programs\\python\\python38\\lib\\doctest.py',
   'PYMODULE'),
  ('unittest',
   'c:\\users\\admin\\appdata\\local\\programs\\python\\python38\\lib\\unittest\\__init__.py',
   'PYMODULE'),
  ('unittest.signals',
   'c:\\users\\admin\\appdata\\local\\programs\\python\\python38\\lib\\unittest\\signals.py',
   'PYMODULE'),
  ('signal',
   'c:\\users\\admin\\appdata\\local\\programs\\python\\python38\\lib\\signal.py',
   'PYMODULE'),
  ('unittest.main',
   'c:\\users\\admin\\appdata\\local\\programs\\python\\python38\\lib\\unittest\\main.py',
   'PYMODULE'),
  ('unittest.runner',
   'c:\\users\\admin\\appdata\\local\\programs\\python\\python38\\lib\\unittest\\runner.py',
   'PYMODULE'),
  ('unittest.loader',
   'c:\\users\\admin\\appdata\\local\\programs\\python\\python38\\lib\\unittest\\loader.py',
   'PYMODULE'),
  ('unittest.suite',
   'c:\\users\\admin\\appdata\\local\\programs\\python\\python38\\lib\\unittest\\suite.py',
   'PYMODULE'),
  ('unittest.case',
   'c:\\users\\admin\\appdata\\local\\programs\\python\\python38\\lib\\unittest\\case.py',
   'PYMODULE'),
  ('unittest.async_case',
   'c:\\users\\admin\\appdata\\local\\programs\\python\\python38\\lib\\unittest\\async_case.py',
   'PYMODULE'),
  ('asyncio',
   'c:\\users\\admin\\appdata\\local\\programs\\python\\python38\\lib\\asyncio\\__init__.py',
   'PYMODULE'),
  ('asyncio.unix_events',
   'c:\\users\\admin\\appdata\\local\\programs\\python\\python38\\lib\\asyncio\\unix_events.py',
   'PYMODULE'),
  ('asyncio.log',
   'c:\\users\\admin\\appdata\\local\\programs\\python\\python38\\lib\\asyncio\\log.py',
   'PYMODULE'),
  ('subprocess',
   'c:\\users\\admin\\appdata\\local\\programs\\python\\python38\\lib\\subprocess.py',
   'PYMODULE'),
  ('asyncio.windows_events',
   'c:\\users\\admin\\appdata\\local\\programs\\python\\python38\\lib\\asyncio\\windows_events.py',
   'PYMODULE'),
  ('asyncio.windows_utils',
   'c:\\users\\admin\\appdata\\local\\programs\\python\\python38\\lib\\asyncio\\windows_utils.py',
   'PYMODULE'),
  ('asyncio.selector_events',
   'c:\\users\\admin\\appdata\\local\\programs\\python\\python38\\lib\\asyncio\\selector_events.py',
   'PYMODULE'),
  ('ssl',
   'c:\\users\\admin\\appdata\\local\\programs\\python\\python38\\lib\\ssl.py',
   'PYMODULE'),
  ('base64',
   'c:\\users\\admin\\appdata\\local\\programs\\python\\python38\\lib\\base64.py',
   'PYMODULE'),
  ('asyncio.proactor_events',
   'c:\\users\\admin\\appdata\\local\\programs\\python\\python38\\lib\\asyncio\\proactor_events.py',
   'PYMODULE'),
  ('asyncio.base_subprocess',
   'c:\\users\\admin\\appdata\\local\\programs\\python\\python38\\lib\\asyncio\\base_subprocess.py',
   'PYMODULE'),
  ('asyncio.subprocess',
   'c:\\users\\admin\\appdata\\local\\programs\\python\\python38\\lib\\asyncio\\subprocess.py',
   'PYMODULE'),
  ('asyncio.streams',
   'c:\\users\\admin\\appdata\\local\\programs\\python\\python38\\lib\\asyncio\\streams.py',
   'PYMODULE'),
  ('asyncio.queues',
   'c:\\users\\admin\\appdata\\local\\programs\\python\\python38\\lib\\asyncio\\queues.py',
   'PYMODULE'),
  ('asyncio.runners',
   'c:\\users\\admin\\appdata\\local\\programs\\python\\python38\\lib\\asyncio\\runners.py',
   'PYMODULE'),
  ('asyncio.events',
   'c:\\users\\admin\\appdata\\local\\programs\\python\\python38\\lib\\asyncio\\events.py',
   'PYMODULE'),
  ('contextvars',
   'c:\\users\\admin\\appdata\\local\\programs\\python\\python38\\lib\\contextvars.py',
   'PYMODULE'),
  ('asyncio.trsock',
   'c:\\users\\admin\\appdata\\local\\programs\\python\\python38\\lib\\asyncio\\trsock.py',
   'PYMODULE'),
  ('asyncio.staggered',
   'c:\\users\\admin\\appdata\\local\\programs\\python\\python38\\lib\\asyncio\\staggered.py',
   'PYMODULE'),
  ('typing',
   'c:\\users\\admin\\appdata\\local\\programs\\python\\python38\\lib\\typing.py',
   'PYMODULE'),
  ('asyncio.tasks',
   'c:\\users\\admin\\appdata\\local\\programs\\python\\python38\\lib\\asyncio\\tasks.py',
   'PYMODULE'),
  ('concurrent.futures',
   'c:\\users\\admin\\appdata\\local\\programs\\python\\python38\\lib\\concurrent\\futures\\__init__.py',
   'PYMODULE'),
  ('concurrent.futures.thread',
   'c:\\users\\admin\\appdata\\local\\programs\\python\\python38\\lib\\concurrent\\futures\\thread.py',
   'PYMODULE'),
  ('queue',
   'c:\\users\\admin\\appdata\\local\\programs\\python\\python38\\lib\\queue.py',
   'PYMODULE'),
  ('concurrent.futures.process',
   'c:\\users\\admin\\appdata\\local\\programs\\python\\python38\\lib\\concurrent\\futures\\process.py',
   'PYMODULE'),
  ('multiprocessing.queues',
   'c:\\users\\admin\\appdata\\local\\programs\\python\\python38\\lib\\multiprocessing\\queues.py',
   'PYMODULE'),
  ('multiprocessing.synchronize',
   'c:\\users\\admin\\appdata\\local\\programs\\python\\python38\\lib\\multiprocessing\\synchronize.py',
   'PYMODULE'),
  ('multiprocessing.heap',
   'c:\\users\\admin\\appdata\\local\\programs\\python\\python38\\lib\\multiprocessing\\heap.py',
   'PYMODULE'),
  ('multiprocessing.resource_tracker',
   'c:\\users\\admin\\appdata\\local\\programs\\python\\python38\\lib\\multiprocessing\\resource_tracker.py',
   'PYMODULE'),
  ('multiprocessing.spawn',
   'c:\\users\\admin\\appdata\\local\\programs\\python\\python38\\lib\\multiprocessing\\spawn.py',
   'PYMODULE'),
  ('runpy',
   'c:\\users\\admin\\appdata\\local\\programs\\python\\python38\\lib\\runpy.py',
   'PYMODULE'),
  ('pkgutil',
   'c:\\users\\admin\\appdata\\local\\programs\\python\\python38\\lib\\pkgutil.py',
   'PYMODULE'),
  ('zipimport',
   'c:\\users\\admin\\appdata\\local\\programs\\python\\python38\\lib\\zipimport.py',
   'PYMODULE'),
  ('multiprocessing.process',
   'c:\\users\\admin\\appdata\\local\\programs\\python\\python38\\lib\\multiprocessing\\process.py',
   'PYMODULE'),
  ('multiprocessing.util',
   'c:\\users\\admin\\appdata\\local\\programs\\python\\python38\\lib\\multiprocessing\\util.py',
   'PYMODULE'),
  ('multiprocessing.forkserver',
   'c:\\users\\admin\\appdata\\local\\programs\\python\\python38\\lib\\multiprocessing\\forkserver.py',
   'PYMODULE'),
  ('multiprocessing.context',
   'c:\\users\\admin\\appdata\\local\\programs\\python\\python38\\lib\\multiprocessing\\context.py',
   'PYMODULE'),
  ('multiprocessing.popen_spawn_win32',
   'c:\\users\\admin\\appdata\\local\\programs\\python\\python38\\lib\\multiprocessing\\popen_spawn_win32.py',
   'PYMODULE'),
  ('multiprocessing.popen_forkserver',
   'c:\\users\\admin\\appdata\\local\\programs\\python\\python38\\lib\\multiprocessing\\popen_forkserver.py',
   'PYMODULE'),
  ('multiprocessing.popen_spawn_posix',
   'c:\\users\\admin\\appdata\\local\\programs\\python\\python38\\lib\\multiprocessing\\popen_spawn_posix.py',
   'PYMODULE'),
  ('multiprocessing.popen_fork',
   'c:\\users\\admin\\appdata\\local\\programs\\python\\python38\\lib\\multiprocessing\\popen_fork.py',
   'PYMODULE'),
  ('multiprocessing.sharedctypes',
   'c:\\users\\admin\\appdata\\local\\programs\\python\\python38\\lib\\multiprocessing\\sharedctypes.py',
   'PYMODULE'),
  ('ctypes',
   'c:\\users\\admin\\appdata\\local\\programs\\python\\python38\\lib\\ctypes\\__init__.py',
   'PYMODULE'),
  ('ctypes._endian',
   'c:\\users\\admin\\appdata\\local\\programs\\python\\python38\\lib\\ctypes\\_endian.py',
   'PYMODULE'),
  ('multiprocessing.pool',
   'c:\\users\\admin\\appdata\\local\\programs\\python\\python38\\lib\\multiprocessing\\pool.py',
   'PYMODULE'),
  ('multiprocessing.dummy',
   'c:\\users\\admin\\appdata\\local\\programs\\python\\python38\\lib\\multiprocessing\\dummy\\__init__.py',
   'PYMODULE'),
  ('multiprocessing.dummy.connection',
   'c:\\users\\admin\\appdata\\local\\programs\\python\\python38\\lib\\multiprocessing\\dummy\\connection.py',
   'PYMODULE'),
  ('multiprocessing.managers',
   'c:\\users\\admin\\appdata\\local\\programs\\python\\python38\\lib\\multiprocessing\\managers.py',
   'PYMODULE'),
  ('multiprocessing.shared_memory',
   'c:\\users\\admin\\appdata\\local\\programs\\python\\python38\\lib\\multiprocessing\\shared_memory.py',
   'PYMODULE'),
  ('secrets',
   'c:\\users\\admin\\appdata\\local\\programs\\python\\python38\\lib\\secrets.py',
   'PYMODULE'),
  ('hmac',
   'c:\\users\\admin\\appdata\\local\\programs\\python\\python38\\lib\\hmac.py',
   'PYMODULE'),
  ('multiprocessing.reduction',
   'c:\\users\\admin\\appdata\\local\\programs\\python\\python38\\lib\\multiprocessing\\reduction.py',
   'PYMODULE'),
  ('multiprocessing.resource_sharer',
   'c:\\users\\admin\\appdata\\local\\programs\\python\\python38\\lib\\multiprocessing\\resource_sharer.py',
   'PYMODULE'),
  ('multiprocessing.connection',
   'c:\\users\\admin\\appdata\\local\\programs\\python\\python38\\lib\\multiprocessing\\connection.py',
   'PYMODULE'),
  ('xmlrpc.client',
   'c:\\users\\admin\\appdata\\local\\programs\\python\\python38\\lib\\xmlrpc\\client.py',
   'PYMODULE'),
  ('xmlrpc',
   'c:\\users\\admin\\appdata\\local\\programs\\python\\python38\\lib\\xmlrpc\\__init__.py',
   'PYMODULE'),
  ('gzip',
   'c:\\users\\admin\\appdata\\local\\programs\\python\\python38\\lib\\gzip.py',
   'PYMODULE'),
  ('xml.parsers.expat',
   'c:\\users\\admin\\appdata\\local\\programs\\python\\python38\\lib\\xml\\parsers\\expat.py',
   'PYMODULE'),
  ('xml.parsers',
   'c:\\users\\admin\\appdata\\local\\programs\\python\\python38\\lib\\xml\\parsers\\__init__.py',
   'PYMODULE'),
  ('xml',
   'c:\\users\\admin\\appdata\\local\\programs\\python\\python38\\lib\\xml\\__init__.py',
   'PYMODULE'),
  ('xml.sax.expatreader',
   'c:\\users\\admin\\appdata\\local\\programs\\python\\python38\\lib\\xml\\sax\\expatreader.py',
   'PYMODULE'),
  ('xml.sax.saxutils',
   'c:\\users\\admin\\appdata\\local\\programs\\python\\python38\\lib\\xml\\sax\\saxutils.py',
   'PYMODULE'),
  ('urllib.request',
   'c:\\users\\admin\\appdata\\local\\programs\\python\\python38\\lib\\urllib\\request.py',
   'PYMODULE'),
  ('getpass',
   'c:\\users\\admin\\appdata\\local\\programs\\python\\python38\\lib\\getpass.py',
   'PYMODULE'),
  ('nturl2path',
   'c:\\users\\admin\\appdata\\local\\programs\\python\\python38\\lib\\nturl2path.py',
   'PYMODULE'),
  ('ftplib',
   'c:\\users\\admin\\appdata\\local\\programs\\python\\python38\\lib\\ftplib.py',
   'PYMODULE'),
  ('netrc',
   'c:\\users\\admin\\appdata\\local\\programs\\python\\python38\\lib\\netrc.py',
   'PYMODULE'),
  ('shlex',
   'c:\\users\\admin\\appdata\\local\\programs\\python\\python38\\lib\\shlex.py',
   'PYMODULE'),
  ('mimetypes',
   'c:\\users\\admin\\appdata\\local\\programs\\python\\python38\\lib\\mimetypes.py',
   'PYMODULE'),
  ('http.cookiejar',
   'c:\\users\\admin\\appdata\\local\\programs\\python\\python38\\lib\\http\\cookiejar.py',
   'PYMODULE'),
  ('http',
   'c:\\users\\admin\\appdata\\local\\programs\\python\\python38\\lib\\http\\__init__.py',
   'PYMODULE'),
  ('urllib.response',
   'c:\\users\\admin\\appdata\\local\\programs\\python\\python38\\lib\\urllib\\response.py',
   'PYMODULE'),
  ('urllib.error',
   'c:\\users\\admin\\appdata\\local\\programs\\python\\python38\\lib\\urllib\\error.py',
   'PYMODULE'),
  ('xml.sax',
   'c:\\users\\admin\\appdata\\local\\programs\\python\\python38\\lib\\xml\\sax\\__init__.py',
   'PYMODULE'),
  ('xml.sax.handler',
   'c:\\users\\admin\\appdata\\local\\programs\\python\\python38\\lib\\xml\\sax\\handler.py',
   'PYMODULE'),
  ('xml.sax._exceptions',
   'c:\\users\\admin\\appdata\\local\\programs\\python\\python38\\lib\\xml\\sax\\_exceptions.py',
   'PYMODULE'),
  ('xml.sax.xmlreader',
   'c:\\users\\admin\\appdata\\local\\programs\\python\\python38\\lib\\xml\\sax\\xmlreader.py',
   'PYMODULE'),
  ('http.client',
   'c:\\users\\admin\\appdata\\local\\programs\\python\\python38\\lib\\http\\client.py',
   'PYMODULE'),
  ('email.message',
   'c:\\users\\admin\\appdata\\local\\programs\\python\\python38\\lib\\email\\message.py',
   'PYMODULE'),
  ('email.policy',
   'c:\\users\\admin\\appdata\\local\\programs\\python\\python38\\lib\\email\\policy.py',
   'PYMODULE'),
  ('email.contentmanager',
   'c:\\users\\admin\\appdata\\local\\programs\\python\\python38\\lib\\email\\contentmanager.py',
   'PYMODULE'),
  ('email.quoprimime',
   'c:\\users\\admin\\appdata\\local\\programs\\python\\python38\\lib\\email\\quoprimime.py',
   'PYMODULE'),
  ('email.headerregistry',
   'c:\\users\\admin\\appdata\\local\\programs\\python\\python38\\lib\\email\\headerregistry.py',
   'PYMODULE'),
  ('email.iterators',
   'c:\\users\\admin\\appdata\\local\\programs\\python\\python38\\lib\\email\\iterators.py',
   'PYMODULE'),
  ('email.generator',
   'c:\\users\\admin\\appdata\\local\\programs\\python\\python38\\lib\\email\\generator.py',
   'PYMODULE'),
  ('email._encoded_words',
   'c:\\users\\admin\\appdata\\local\\programs\\python\\python38\\lib\\email\\_encoded_words.py',
   'PYMODULE'),
  ('quopri',
   'c:\\users\\admin\\appdata\\local\\programs\\python\\python38\\lib\\quopri.py',
   'PYMODULE'),
  ('uu',
   'c:\\users\\admin\\appdata\\local\\programs\\python\\python38\\lib\\uu.py',
   'PYMODULE'),
  ('optparse',
   'c:\\users\\admin\\appdata\\local\\programs\\python\\python38\\lib\\optparse.py',
   'PYMODULE'),
  ('decimal',
   'c:\\users\\admin\\appdata\\local\\programs\\python\\python38\\lib\\decimal.py',
   'PYMODULE'),
  ('_pydecimal',
   'c:\\users\\admin\\appdata\\local\\programs\\python\\python38\\lib\\_pydecimal.py',
   'PYMODULE'),
  ('numbers',
   'c:\\users\\admin\\appdata\\local\\programs\\python\\python38\\lib\\numbers.py',
   'PYMODULE'),
  ('multiprocessing',
   'c:\\users\\admin\\appdata\\local\\programs\\python\\python38\\lib\\multiprocessing\\__init__.py',
   'PYMODULE'),
  ('concurrent.futures._base',
   'c:\\users\\admin\\appdata\\local\\programs\\python\\python38\\lib\\concurrent\\futures\\_base.py',
   'PYMODULE'),
  ('concurrent',
   'c:\\users\\admin\\appdata\\local\\programs\\python\\python38\\lib\\concurrent\\__init__.py',
   'PYMODULE'),
  ('asyncio.base_tasks',
   'c:\\users\\admin\\appdata\\local\\programs\\python\\python38\\lib\\asyncio\\base_tasks.py',
   'PYMODULE'),
  ('asyncio.locks',
   'c:\\users\\admin\\appdata\\local\\programs\\python\\python38\\lib\\asyncio\\locks.py',
   'PYMODULE'),
  ('asyncio.sslproto',
   'c:\\users\\admin\\appdata\\local\\programs\\python\\python38\\lib\\asyncio\\sslproto.py',
   'PYMODULE'),
  ('asyncio.transports',
   'c:\\users\\admin\\appdata\\local\\programs\\python\\python38\\lib\\asyncio\\transports.py',
   'PYMODULE'),
  ('asyncio.base_events',
   'c:\\users\\admin\\appdata\\local\\programs\\python\\python38\\lib\\asyncio\\base_events.py',
   'PYMODULE'),
  ('asyncio.protocols',
   'c:\\users\\admin\\appdata\\local\\programs\\python\\python38\\lib\\asyncio\\protocols.py',
   'PYMODULE'),
  ('asyncio.futures',
   'c:\\users\\admin\\appdata\\local\\programs\\python\\python38\\lib\\asyncio\\futures.py',
   'PYMODULE'),
  ('asyncio.coroutines',
   'c:\\users\\admin\\appdata\\local\\programs\\python\\python38\\lib\\asyncio\\coroutines.py',
   'PYMODULE'),
  ('asyncio.base_futures',
   'c:\\users\\admin\\appdata\\local\\programs\\python\\python38\\lib\\asyncio\\base_futures.py',
   'PYMODULE'),
  ('asyncio.exceptions',
   'c:\\users\\admin\\appdata\\local\\programs\\python\\python38\\lib\\asyncio\\exceptions.py',
   'PYMODULE'),
  ('asyncio.format_helpers',
   'c:\\users\\admin\\appdata\\local\\programs\\python\\python38\\lib\\asyncio\\format_helpers.py',
   'PYMODULE'),
  ('asyncio.constants',
   'c:\\users\\admin\\appdata\\local\\programs\\python\\python38\\lib\\asyncio\\constants.py',
   'PYMODULE'),
  ('unittest.result',
   'c:\\users\\admin\\appdata\\local\\programs\\python\\python38\\lib\\unittest\\result.py',
   'PYMODULE'),
  ('unittest.util',
   'c:\\users\\admin\\appdata\\local\\programs\\python\\python38\\lib\\unittest\\util.py',
   'PYMODULE'),
  ('pdb',
   'c:\\users\\admin\\appdata\\local\\programs\\python\\python38\\lib\\pdb.py',
   'PYMODULE'),
  ('pydoc',
   'c:\\users\\admin\\appdata\\local\\programs\\python\\python38\\lib\\pydoc.py',
   'PYMODULE'),
  ('webbrowser',
   'c:\\users\\admin\\appdata\\local\\programs\\python\\python38\\lib\\webbrowser.py',
   'PYMODULE'),
  ('http.server',
   'c:\\users\\admin\\appdata\\local\\programs\\python\\python38\\lib\\http\\server.py',
   'PYMODULE'),
  ('socketserver',
   'c:\\users\\admin\\appdata\\local\\programs\\python\\python38\\lib\\socketserver.py',
   'PYMODULE'),
  ('html',
   'c:\\users\\admin\\appdata\\local\\programs\\python\\python38\\lib\\html\\__init__.py',
   'PYMODULE'),
  ('html.entities',
   'c:\\users\\admin\\appdata\\local\\programs\\python\\python38\\lib\\html\\entities.py',
   'PYMODULE'),
  ('pydoc_data.topics',
   'c:\\users\\admin\\appdata\\local\\programs\\python\\python38\\lib\\pydoc_data\\topics.py',
   'PYMODULE'),
  ('pydoc_data',
   'c:\\users\\admin\\appdata\\local\\programs\\python\\python38\\lib\\pydoc_data\\__init__.py',
   'PYMODULE'),
  ('tty',
   'c:\\users\\admin\\appdata\\local\\programs\\python\\python38\\lib\\tty.py',
   'PYMODULE'),
  ('sysconfig',
   'c:\\users\\admin\\appdata\\local\\programs\\python\\python38\\lib\\sysconfig.py',
   'PYMODULE'),
  ('_osx_support',
   'c:\\users\\admin\\appdata\\local\\programs\\python\\python38\\lib\\_osx_support.py',
   'PYMODULE'),
  ('distutils.log',
   'c:\\users\\admin\\appdata\\local\\programs\\python\\python38\\lib\\distutils\\log.py',
   'PYMODULE'),
  ('distutils',
   'c:\\users\\admin\\appdata\\local\\programs\\python\\python38\\lib\\distutils\\__init__.py',
   'PYMODULE'),
  ('distutils.archive_util',
   'c:\\users\\admin\\appdata\\local\\programs\\python\\python38\\lib\\distutils\\archive_util.py',
   'PYMODULE'),
  ('tarfile',
   'c:\\users\\admin\\appdata\\local\\programs\\python\\python38\\lib\\tarfile.py',
   'PYMODULE'),
  ('distutils.dir_util',
   'c:\\users\\admin\\appdata\\local\\programs\\python\\python38\\lib\\distutils\\dir_util.py',
   'PYMODULE'),
  ('distutils.file_util',
   'c:\\users\\admin\\appdata\\local\\programs\\python\\python38\\lib\\distutils\\file_util.py',
   'PYMODULE'),
  ('distutils.dep_util',
   'c:\\users\\admin\\appdata\\local\\programs\\python\\python38\\lib\\distutils\\dep_util.py',
   'PYMODULE'),
  ('distutils.spawn',
   'c:\\users\\admin\\appdata\\local\\programs\\python\\python38\\lib\\distutils\\spawn.py',
   'PYMODULE'),
  ('distutils.debug',
   'c:\\users\\admin\\appdata\\local\\programs\\python\\python38\\lib\\distutils\\debug.py',
   'PYMODULE'),
  ('distutils.errors',
   'c:\\users\\admin\\appdata\\local\\programs\\python\\python38\\lib\\distutils\\errors.py',
   'PYMODULE'),
  ('distutils.ccompiler',
   'c:\\users\\admin\\appdata\\local\\programs\\python\\python38\\lib\\distutils\\ccompiler.py',
   'PYMODULE'),
  ('distutils.fancy_getopt',
   'c:\\users\\admin\\appdata\\local\\programs\\python\\python38\\lib\\distutils\\fancy_getopt.py',
   'PYMODULE'),
  ('distutils.util',
   'c:\\users\\admin\\appdata\\local\\programs\\python\\python38\\lib\\distutils\\util.py',
   'PYMODULE'),
  ('distutils.filelist',
   'c:\\users\\admin\\appdata\\local\\programs\\python\\python38\\lib\\distutils\\filelist.py',
   'PYMODULE'),
  ('distutils.sysconfig',
   'c:\\users\\admin\\appdata\\local\\programs\\python\\python38\\lib\\distutils\\sysconfig.py',
   'PYMODULE'),
  ('distutils.text_file',
   'c:\\users\\admin\\appdata\\local\\programs\\python\\python38\\lib\\distutils\\text_file.py',
   'PYMODULE'),
  ('platform',
   'c:\\users\\admin\\appdata\\local\\programs\\python\\python38\\lib\\platform.py',
   'PYMODULE'),
  ('plistlib',
   'c:\\users\\admin\\appdata\\local\\programs\\python\\python38\\lib\\plistlib.py',
   'PYMODULE'),
  ('glob',
   'c:\\users\\admin\\appdata\\local\\programs\\python\\python38\\lib\\glob.py',
   'PYMODULE'),
  ('code',
   'c:\\users\\admin\\appdata\\local\\programs\\python\\python38\\lib\\code.py',
   'PYMODULE'),
  ('codeop',
   'c:\\users\\admin\\appdata\\local\\programs\\python\\python38\\lib\\codeop.py',
   'PYMODULE'),
  ('dis',
   'c:\\users\\admin\\appdata\\local\\programs\\python\\python38\\lib\\dis.py',
   'PYMODULE'),
  ('opcode',
   'c:\\users\\admin\\appdata\\local\\programs\\python\\python38\\lib\\opcode.py',
   'PYMODULE'),
  ('bdb',
   'c:\\users\\admin\\appdata\\local\\programs\\python\\python38\\lib\\bdb.py',
   'PYMODULE'),
  ('cmd',
   'c:\\users\\admin\\appdata\\local\\programs\\python\\python38\\lib\\cmd.py',
   'PYMODULE'),
  ('inspect',
   'c:\\users\\admin\\appdata\\local\\programs\\python\\python38\\lib\\inspect.py',
   'PYMODULE'),
  ('ast',
   'c:\\users\\admin\\appdata\\local\\programs\\python\\python38\\lib\\ast.py',
   'PYMODULE'),
  ('token',
   'c:\\users\\admin\\appdata\\local\\programs\\python\\python38\\lib\\token.py',
   'PYMODULE'),
  ('difflib',
   'c:\\users\\admin\\appdata\\local\\programs\\python\\python38\\lib\\difflib.py',
   'PYMODULE'),
  ('__future__',
   'c:\\users\\admin\\appdata\\local\\programs\\python\\python38\\lib\\__future__.py',
   'PYMODULE'),
  ('_compat_pickle',
   'c:\\users\\admin\\appdata\\local\\programs\\python\\python38\\lib\\_compat_pickle.py',
   'PYMODULE'),
  ('bisect',
   'c:\\users\\admin\\appdata\\local\\programs\\python\\python38\\lib\\bisect.py',
   'PYMODULE'),
  ('email.feedparser',
   'c:\\users\\admin\\appdata\\local\\programs\\python\\python38\\lib\\email\\feedparser.py',
   'PYMODULE'),
  ('email._header_value_parser',
   'c:\\users\\admin\\appdata\\local\\programs\\python\\python38\\lib\\email\\_header_value_parser.py',
   'PYMODULE'),
  ('email.header',
   'c:\\users\\admin\\appdata\\local\\programs\\python\\python38\\lib\\email\\header.py',
   'PYMODULE'),
  ('email.base64mime',
   'c:\\users\\admin\\appdata\\local\\programs\\python\\python38\\lib\\email\\base64mime.py',
   'PYMODULE'),
  ('email.charset',
   'c:\\users\\admin\\appdata\\local\\programs\\python\\python38\\lib\\email\\charset.py',
   'PYMODULE'),
  ('email.encoders',
   'c:\\users\\admin\\appdata\\local\\programs\\python\\python38\\lib\\email\\encoders.py',
   'PYMODULE'),
  ('email.errors',
   'c:\\users\\admin\\appdata\\local\\programs\\python\\python38\\lib\\email\\errors.py',
   'PYMODULE'),
  ('csv',
   'c:\\users\\admin\\appdata\\local\\programs\\python\\python38\\lib\\csv.py',
   'PYMODULE'),
  ('tokenize',
   'c:\\users\\admin\\appdata\\local\\programs\\python\\python38\\lib\\tokenize.py',
   'PYMODULE'),
  ('importlib.abc',
   'c:\\users\\admin\\appdata\\local\\programs\\python\\python38\\lib\\importlib\\abc.py',
   'PYMODULE'),
  ('importlib._bootstrap',
   'c:\\users\\admin\\appdata\\local\\programs\\python\\python38\\lib\\importlib\\_bootstrap.py',
   'PYMODULE'),
  ('win32com.client.gencache',
   'c:\\users\\admin\\appdata\\local\\programs\\python\\python38\\lib\\site-packages\\win32com\\client\\gencache.py',
   'PYMODULE'),
  ('win32com.client.selecttlb',
   'c:\\users\\admin\\appdata\\local\\programs\\python\\python38\\lib\\site-packages\\win32com\\client\\selecttlb.py',
   'PYMODULE'),
  ('pywin.dialogs.list',
   'c:\\users\\admin\\appdata\\local\\programs\\python\\python38\\lib\\site-packages\\Pythonwin\\pywin\\dialogs\\list.py',
   'PYMODULE'),
  ('commctrl',
   'c:\\users\\admin\\appdata\\local\\programs\\python\\python38\\lib\\site-packages\\win32\\lib\\commctrl.py',
   'PYMODULE'),
  ('win32com.client.genpy',
   'c:\\users\\admin\\appdata\\local\\programs\\python\\python38\\lib\\site-packages\\win32com\\client\\genpy.py',
   'PYMODULE'),
  ('win32com.client.CLSIDToClass',
   'c:\\users\\admin\\appdata\\local\\programs\\python\\python38\\lib\\site-packages\\win32com\\client\\CLSIDToClass.py',
   'PYMODULE'),
  ('win32com.client.dynamic',
   'c:\\users\\admin\\appdata\\local\\programs\\python\\python38\\lib\\site-packages\\win32com\\client\\dynamic.py',
   'PYMODULE'),
  ('win32com.client.build',
   'c:\\users\\admin\\appdata\\local\\programs\\python\\python38\\lib\\site-packages\\win32com\\client\\build.py',
   'PYMODULE'),
  ('pywintypes',
   'c:\\users\\admin\\appdata\\local\\programs\\python\\python38\\lib\\site-packages\\win32\\lib\\pywintypes.py',
   'PYMODULE'),
  ('win32com.server',
   'c:\\users\\admin\\appdata\\local\\programs\\python\\python38\\lib\\site-packages\\win32com\\server\\__init__.py',
   'PYMODULE'),
  ('win32com.universal',
   'c:\\users\\admin\\appdata\\local\\programs\\python\\python38\\lib\\site-packages\\win32com\\universal.py',
   'PYMODULE'),
  ('win32com.client.util',
   'c:\\users\\admin\\appdata\\local\\programs\\python\\python38\\lib\\site-packages\\win32com\\client\\util.py',
   'PYMODULE'),
  ('pythoncom',
   'c:\\users\\admin\\appdata\\local\\programs\\python\\python38\\lib\\site-packages\\pythoncom.py',
   'PYMODULE'),
  ('tempfile',
   'c:\\users\\admin\\appdata\\local\\programs\\python\\python38\\lib\\tempfile.py',
   'PYMODULE'),
  ('shutil',
   'c:\\users\\admin\\appdata\\local\\programs\\python\\python38\\lib\\shutil.py',
   'PYMODULE'),
  ('os',
   'c:\\users\\admin\\appdata\\local\\programs\\python\\python38\\lib\\os.py',
   'PYMODULE'),
  ('pkg_resources',
   'c:\\users\\admin\\appdata\\local\\programs\\python\\python38\\lib\\site-packages\\pkg_resources\\__init__.py',
   'PYMODULE'),
  ('pkg_resources._vendor.pyparsing',
   'c:\\users\\admin\\appdata\\local\\programs\\python\\python38\\lib\\site-packages\\pkg_resources\\_vendor\\pyparsing.py',
   'PYMODULE'),
  ('uuid',
   'c:\\users\\admin\\appdata\\local\\programs\\python\\python38\\lib\\uuid.py',
   'PYMODULE'),
  ('ctypes.util',
   'c:\\users\\admin\\appdata\\local\\programs\\python\\python38\\lib\\ctypes\\util.py',
   'PYMODULE'),
  ('ctypes._aix',
   'c:\\users\\admin\\appdata\\local\\programs\\python\\python38\\lib\\ctypes\\_aix.py',
   'PYMODULE'),
  ('ctypes.macholib.dyld',
   'c:\\users\\admin\\appdata\\local\\programs\\python\\python38\\lib\\ctypes\\macholib\\dyld.py',
   'PYMODULE'),
  ('ctypes.macholib',
   'c:\\users\\admin\\appdata\\local\\programs\\python\\python38\\lib\\ctypes\\macholib\\__init__.py',
   'PYMODULE'),
  ('ctypes.macholib.dylib',
   'c:\\users\\admin\\appdata\\local\\programs\\python\\python38\\lib\\ctypes\\macholib\\dylib.py',
   'PYMODULE'),
  ('ctypes.macholib.framework',
   'c:\\users\\admin\\appdata\\local\\programs\\python\\python38\\lib\\ctypes\\macholib\\framework.py',
   'PYMODULE'),
  ('netbios',
   'c:\\users\\admin\\appdata\\local\\programs\\python\\python38\\lib\\site-packages\\win32\\lib\\netbios.py',
   'PYMODULE'),
  ('pkg_resources._vendor.packaging.requirements',
   'c:\\users\\admin\\appdata\\local\\programs\\python\\python38\\lib\\site-packages\\pkg_resources\\_vendor\\packaging\\requirements.py',
   'PYMODULE'),
  ('pkg_resources._vendor.packaging.markers',
   'c:\\users\\admin\\appdata\\local\\programs\\python\\python38\\lib\\site-packages\\pkg_resources\\_vendor\\packaging\\markers.py',
   'PYMODULE'),
  ('pkg_resources._vendor.packaging.version',
   'c:\\users\\admin\\appdata\\local\\programs\\python\\python38\\lib\\site-packages\\pkg_resources\\_vendor\\packaging\\version.py',
   'PYMODULE'),
  ('pkg_resources._vendor.packaging.tags',
   'c:\\users\\admin\\appdata\\local\\programs\\python\\python38\\lib\\site-packages\\pkg_resources\\_vendor\\packaging\\tags.py',
   'PYMODULE'),
  ('pkg_resources._vendor.packaging._compat',
   'c:\\users\\admin\\appdata\\local\\programs\\python\\python38\\lib\\site-packages\\pkg_resources\\_vendor\\packaging\\_compat.py',
   'PYMODULE'),
  ('pkg_resources._vendor',
   'c:\\users\\admin\\appdata\\local\\programs\\python\\python38\\lib\\site-packages\\pkg_resources\\_vendor\\__init__.py',
   'PYMODULE'),
  ('pkg_resources._vendor.packaging.__about__',
   'c:\\users\\admin\\appdata\\local\\programs\\python\\python38\\lib\\site-packages\\pkg_resources\\_vendor\\packaging\\__about__.py',
   'PYMODULE'),
  ('pkg_resources._vendor.packaging',
   'c:\\users\\admin\\appdata\\local\\programs\\python\\python38\\lib\\site-packages\\pkg_resources\\_vendor\\packaging\\__init__.py',
   'PYMODULE'),
  ('pkg_resources._vendor.packaging.specifiers',
   'c:\\users\\admin\\appdata\\local\\programs\\python\\python38\\lib\\site-packages\\pkg_resources\\_vendor\\packaging\\specifiers.py',
   'PYMODULE'),
  ('pkg_resources._vendor.appdirs',
   'c:\\users\\admin\\appdata\\local\\programs\\python\\python38\\lib\\site-packages\\pkg_resources\\_vendor\\appdirs.py',
   'PYMODULE'),
  ('win32com.shell.shellcon',
   'c:\\users\\admin\\appdata\\local\\programs\\python\\python38\\lib\\site-packages\\win32comext\\shell\\shellcon.py',
   'PYMODULE'),
  ('win32com.shell',
   'c:\\users\\admin\\appdata\\local\\programs\\python\\python38\\lib\\site-packages\\win32comext\\shell\\__init__.py',
   'PYMODULE'),
  ('pkg_resources._vendor.packaging._structures',
   'c:\\users\\admin\\appdata\\local\\programs\\python\\python38\\lib\\site-packages\\pkg_resources\\_vendor\\packaging\\_structures.py',
   'PYMODULE'),
  ('pkg_resources._vendor.packaging.utils',
   'c:\\users\\admin\\appdata\\local\\programs\\python\\python38\\lib\\site-packages\\pkg_resources\\_vendor\\packaging\\utils.py',
   'PYMODULE'),
  ('pkg_resources._vendor.six',
   'c:\\users\\admin\\appdata\\local\\programs\\python\\python38\\lib\\site-packages\\pkg_resources\\_vendor\\six.py',
   'PYMODULE'),
  ('pkg_resources.extern',
   'c:\\users\\admin\\appdata\\local\\programs\\python\\python38\\lib\\site-packages\\pkg_resources\\extern\\__init__.py',
   'PYMODULE'),
  ('imp',
   'c:\\users\\admin\\appdata\\local\\programs\\python\\python38\\lib\\imp.py',
   'PYMODULE'),
  ('tracemalloc',
   'c:\\users\\admin\\appdata\\local\\programs\\python\\python38\\lib\\tracemalloc.py',
   'PYMODULE'),
  ('_py_abc',
   'c:\\users\\admin\\appdata\\local\\programs\\python\\python38\\lib\\_py_abc.py',
   'PYMODULE'),
  ('stringprep',
   'c:\\users\\admin\\appdata\\local\\programs\\python\\python38\\lib\\stringprep.py',
   'PYMODULE'),
  ('BestMove', 'D:\\chess AI\\BigProject\\Chess\\BestMove.py', 'PYMODULE'),
  ('Constraint', 'D:\\chess AI\\BigProject\\Chess\\Constraint.py', 'PYMODULE'),
  ('pygame',
   'C:\\Users\\Admin\\AppData\\Roaming\\Python\\Python38\\site-packages\\pygame\\__init__.py',
   'PYMODULE'),
  ('pygame.colordict',
   'C:\\Users\\Admin\\AppData\\Roaming\\Python\\Python38\\site-packages\\pygame\\colordict.py',
   'PYMODULE'),
  ('pygame.macosx',
   'C:\\Users\\Admin\\AppData\\Roaming\\Python\\Python38\\site-packages\\pygame\\macosx.py',
   'PYMODULE'),
  ('pygame.pkgdata',
   'C:\\Users\\Admin\\AppData\\Roaming\\Python\\Python38\\site-packages\\pygame\\pkgdata.py',
   'PYMODULE'),
  ('numpy',
   'c:\\users\\admin\\appdata\\local\\programs\\python\\python38\\lib\\site-packages\\numpy\\__init__.py',
   'PYMODULE'),
  ('numpy.core._dtype_ctypes',
   'c:\\users\\admin\\appdata\\local\\programs\\python\\python38\\lib\\site-packages\\numpy\\core\\_dtype_ctypes.py',
   'PYMODULE'),
  ('numpy._pytesttester',
   'c:\\users\\admin\\appdata\\local\\programs\\python\\python38\\lib\\site-packages\\numpy\\_pytesttester.py',
   'PYMODULE'),
  ('numpy.testing',
   'c:\\users\\admin\\appdata\\local\\programs\\python\\python38\\lib\\site-packages\\numpy\\testing\\__init__.py',
   'PYMODULE'),
  ('numpy.testing._private.nosetester',
   'c:\\users\\admin\\appdata\\local\\programs\\python\\python38\\lib\\site-packages\\numpy\\testing\\_private\\nosetester.py',
   'PYMODULE'),
  ('numpy.testing._private.noseclasses',
   'c:\\users\\admin\\appdata\\local\\programs\\python\\python38\\lib\\site-packages\\numpy\\testing\\_private\\noseclasses.py',
   'PYMODULE'),
  ('numpy.testing._private.decorators',
   'c:\\users\\admin\\appdata\\local\\programs\\python\\python38\\lib\\site-packages\\numpy\\testing\\_private\\decorators.py',
   'PYMODULE'),
  ('numpy.testing._private.parameterized',
   'c:\\users\\admin\\appdata\\local\\programs\\python\\python38\\lib\\site-packages\\numpy\\testing\\_private\\parameterized.py',
   'PYMODULE'),
  ('numpy.testing._private',
   'c:\\users\\admin\\appdata\\local\\programs\\python\\python38\\lib\\site-packages\\numpy\\testing\\_private\\__init__.py',
   'PYMODULE'),
  ('numpy.testing._private.utils',
   'c:\\users\\admin\\appdata\\local\\programs\\python\\python38\\lib\\site-packages\\numpy\\testing\\_private\\utils.py',
   'PYMODULE'),
  ('numpy.core.fromnumeric',
   'c:\\users\\admin\\appdata\\local\\programs\\python\\python38\\lib\\site-packages\\numpy\\core\\fromnumeric.py',
   'PYMODULE'),
  ('numpy.core._methods',
   'c:\\users\\admin\\appdata\\local\\programs\\python\\python38\\lib\\site-packages\\numpy\\core\\_methods.py',
   'PYMODULE'),
  ('numpy.core._exceptions',
   'c:\\users\\admin\\appdata\\local\\programs\\python\\python38\\lib\\site-packages\\numpy\\core\\_exceptions.py',
   'PYMODULE'),
  ('numpy.core._asarray',
   'c:\\users\\admin\\appdata\\local\\programs\\python\\python38\\lib\\site-packages\\numpy\\core\\_asarray.py',
   'PYMODULE'),
  ('numpy.core.umath',
   'c:\\users\\admin\\appdata\\local\\programs\\python\\python38\\lib\\site-packages\\numpy\\core\\umath.py',
   'PYMODULE'),
  ('numpy.core.overrides',
   'c:\\users\\admin\\appdata\\local\\programs\\python\\python38\\lib\\site-packages\\numpy\\core\\overrides.py',
   'PYMODULE'),
  ('numpy.compat._inspect',
   'c:\\users\\admin\\appdata\\local\\programs\\python\\python38\\lib\\site-packages\\numpy\\compat\\_inspect.py',
   'PYMODULE'),
  ('numpy.core.multiarray',
   'c:\\users\\admin\\appdata\\local\\programs\\python\\python38\\lib\\site-packages\\numpy\\core\\multiarray.py',
   'PYMODULE'),
  ('numpy.core.numerictypes',
   'c:\\users\\admin\\appdata\\local\\programs\\python\\python38\\lib\\site-packages\\numpy\\core\\numerictypes.py',
   'PYMODULE'),
  ('numpy.core._dtype',
   'c:\\users\\admin\\appdata\\local\\programs\\python\\python38\\lib\\site-packages\\numpy\\core\\_dtype.py',
   'PYMODULE'),
  ('numpy.core._type_aliases',
   'c:\\users\\admin\\appdata\\local\\programs\\python\\python38\\lib\\site-packages\\numpy\\core\\_type_aliases.py',
   'PYMODULE'),
  ('numpy.core._string_helpers',
   'c:\\users\\admin\\appdata\\local\\programs\\python\\python38\\lib\\site-packages\\numpy\\core\\_string_helpers.py',
   'PYMODULE'),
  ('numpy.matrixlib',
   'c:\\users\\admin\\appdata\\local\\programs\\python\\python38\\lib\\site-packages\\numpy\\matrixlib\\__init__.py',
   'PYMODULE'),
  ('numpy.matrixlib.defmatrix',
   'c:\\users\\admin\\appdata\\local\\programs\\python\\python38\\lib\\site-packages\\numpy\\matrixlib\\defmatrix.py',
   'PYMODULE'),
  ('numpy.dual',
   'c:\\users\\admin\\appdata\\local\\programs\\python\\python38\\lib\\site-packages\\numpy\\dual.py',
   'PYMODULE'),
  ('numpy.core.numeric',
   'c:\\users\\admin\\appdata\\local\\programs\\python\\python38\\lib\\site-packages\\numpy\\core\\numeric.py',
   'PYMODULE'),
  ('numpy.core.arrayprint',
   'c:\\users\\admin\\appdata\\local\\programs\\python\\python38\\lib\\site-packages\\numpy\\core\\arrayprint.py',
   'PYMODULE'),
  ('_dummy_thread',
   'c:\\users\\admin\\appdata\\local\\programs\\python\\python38\\lib\\_dummy_thread.py',
   'PYMODULE'),
  ('numpy.core._ufunc_config',
   'c:\\users\\admin\\appdata\\local\\programs\\python\\python38\\lib\\site-packages\\numpy\\core\\_ufunc_config.py',
   'PYMODULE'),
  ('numpy.core.shape_base',
   'c:\\users\\admin\\appdata\\local\\programs\\python\\python38\\lib\\site-packages\\numpy\\core\\shape_base.py',
   'PYMODULE'),
  ('numpy.ma',
   'c:\\users\\admin\\appdata\\local\\programs\\python\\python38\\lib\\site-packages\\numpy\\ma\\__init__.py',
   'PYMODULE'),
  ('numpy.ma.extras',
   'c:\\users\\admin\\appdata\\local\\programs\\python\\python38\\lib\\site-packages\\numpy\\ma\\extras.py',
   'PYMODULE'),
  ('numpy.lib.index_tricks',
   'c:\\users\\admin\\appdata\\local\\programs\\python\\python38\\lib\\site-packages\\numpy\\lib\\index_tricks.py',
   'PYMODULE'),
  ('numpy.lib.stride_tricks',
   'c:\\users\\admin\\appdata\\local\\programs\\python\\python38\\lib\\site-packages\\numpy\\lib\\stride_tricks.py',
   'PYMODULE'),
  ('numpy.lib.function_base',
   'c:\\users\\admin\\appdata\\local\\programs\\python\\python38\\lib\\site-packages\\numpy\\lib\\function_base.py',
   'PYMODULE'),
  ('numpy.lib.histograms',
   'c:\\users\\admin\\appdata\\local\\programs\\python\\python38\\lib\\site-packages\\numpy\\lib\\histograms.py',
   'PYMODULE'),
  ('numpy.lib.twodim_base',
   'c:\\users\\admin\\appdata\\local\\programs\\python\\python38\\lib\\site-packages\\numpy\\lib\\twodim_base.py',
   'PYMODULE'),
  ('numpy.core.function_base',
   'c:\\users\\admin\\appdata\\local\\programs\\python\\python38\\lib\\site-packages\\numpy\\core\\function_base.py',
   'PYMODULE'),
  ('numpy.ma.core',
   'c:\\users\\admin\\appdata\\local\\programs\\python\\python38\\lib\\site-packages\\numpy\\ma\\core.py',
   'PYMODULE'),
  ('numpy.core._internal',
   'c:\\users\\admin\\appdata\\local\\programs\\python\\python38\\lib\\site-packages\\numpy\\core\\_internal.py',
   'PYMODULE'),
  ('numpy.ctypeslib',
   'c:\\users\\admin\\appdata\\local\\programs\\python\\python38\\lib\\site-packages\\numpy\\ctypeslib.py',
   'PYMODULE'),
  ('numpy.random',
   'c:\\users\\admin\\appdata\\local\\programs\\python\\python38\\lib\\site-packages\\numpy\\random\\__init__.py',
   'PYMODULE'),
  ('numpy.random._pickle',
   'c:\\users\\admin\\appdata\\local\\programs\\python\\python38\\lib\\site-packages\\numpy\\random\\_pickle.py',
   'PYMODULE'),
  ('numpy.polynomial',
   'c:\\users\\admin\\appdata\\local\\programs\\python\\python38\\lib\\site-packages\\numpy\\polynomial\\__init__.py',
   'PYMODULE'),
  ('numpy.polynomial.laguerre',
   'c:\\users\\admin\\appdata\\local\\programs\\python\\python38\\lib\\site-packages\\numpy\\polynomial\\laguerre.py',
   'PYMODULE'),
  ('numpy.polynomial._polybase',
   'c:\\users\\admin\\appdata\\local\\programs\\python\\python38\\lib\\site-packages\\numpy\\polynomial\\_polybase.py',
   'PYMODULE'),
  ('numpy.polynomial.hermite_e',
   'c:\\users\\admin\\appdata\\local\\programs\\python\\python38\\lib\\site-packages\\numpy\\polynomial\\hermite_e.py',
   'PYMODULE'),
  ('numpy.polynomial.hermite',
   'c:\\users\\admin\\appdata\\local\\programs\\python\\python38\\lib\\site-packages\\numpy\\polynomial\\hermite.py',
   'PYMODULE'),
  ('numpy.polynomial.legendre',
   'c:\\users\\admin\\appdata\\local\\programs\\python\\python38\\lib\\site-packages\\numpy\\polynomial\\legendre.py',
   'PYMODULE'),
  ('numpy.polynomial.chebyshev',
   'c:\\users\\admin\\appdata\\local\\programs\\python\\python38\\lib\\site-packages\\numpy\\polynomial\\chebyshev.py',
   'PYMODULE'),
  ('numpy.polynomial.polynomial',
   'c:\\users\\admin\\appdata\\local\\programs\\python\\python38\\lib\\site-packages\\numpy\\polynomial\\polynomial.py',
   'PYMODULE'),
  ('numpy.polynomial.polyutils',
   'c:\\users\\admin\\appdata\\local\\programs\\python\\python38\\lib\\site-packages\\numpy\\polynomial\\polyutils.py',
   'PYMODULE'),
  ('numpy.fft',
   'c:\\users\\admin\\appdata\\local\\programs\\python\\python38\\lib\\site-packages\\numpy\\fft\\__init__.py',
   'PYMODULE'),
  ('numpy.fft.helper',
   'c:\\users\\admin\\appdata\\local\\programs\\python\\python38\\lib\\site-packages\\numpy\\fft\\helper.py',
   'PYMODULE'),
  ('numpy.fft._pocketfft',
   'c:\\users\\admin\\appdata\\local\\programs\\python\\python38\\lib\\site-packages\\numpy\\fft\\_pocketfft.py',
   'PYMODULE'),
  ('numpy.linalg',
   'c:\\users\\admin\\appdata\\local\\programs\\python\\python38\\lib\\site-packages\\numpy\\linalg\\__init__.py',
   'PYMODULE'),
  ('numpy.linalg.linalg',
   'c:\\users\\admin\\appdata\\local\\programs\\python\\python38\\lib\\site-packages\\numpy\\linalg\\linalg.py',
   'PYMODULE'),
  ('numpy.lib',
   'c:\\users\\admin\\appdata\\local\\programs\\python\\python38\\lib\\site-packages\\numpy\\lib\\__init__.py',
   'PYMODULE'),
  ('numpy.lib._version',
   'c:\\users\\admin\\appdata\\local\\programs\\python\\python38\\lib\\site-packages\\numpy\\lib\\_version.py',
   'PYMODULE'),
  ('numpy.lib.arraypad',
   'c:\\users\\admin\\appdata\\local\\programs\\python\\python38\\lib\\site-packages\\numpy\\lib\\arraypad.py',
   'PYMODULE'),
  ('numpy.lib.arrayterator',
   'c:\\users\\admin\\appdata\\local\\programs\\python\\python38\\lib\\site-packages\\numpy\\lib\\arrayterator.py',
   'PYMODULE'),
  ('numpy.lib.financial',
   'c:\\users\\admin\\appdata\\local\\programs\\python\\python38\\lib\\site-packages\\numpy\\lib\\financial.py',
   'PYMODULE'),
  ('numpy.lib.npyio',
   'c:\\users\\admin\\appdata\\local\\programs\\python\\python38\\lib\\site-packages\\numpy\\lib\\npyio.py',
   'PYMODULE'),
  ('numpy.ma.mrecords',
   'c:\\users\\admin\\appdata\\local\\programs\\python\\python38\\lib\\site-packages\\numpy\\ma\\mrecords.py',
   'PYMODULE'),
  ('numpy.core.records',
   'c:\\users\\admin\\appdata\\local\\programs\\python\\python38\\lib\\site-packages\\numpy\\core\\records.py',
   'PYMODULE'),
  ('numpy.lib._iotools',
   'c:\\users\\admin\\appdata\\local\\programs\\python\\python38\\lib\\site-packages\\numpy\\lib\\_iotools.py',
   'PYMODULE'),
  ('numpy.lib._datasource',
   'c:\\users\\admin\\appdata\\local\\programs\\python\\python38\\lib\\site-packages\\numpy\\lib\\_datasource.py',
   'PYMODULE'),
  ('numpy.lib.format',
   'c:\\users\\admin\\appdata\\local\\programs\\python\\python38\\lib\\site-packages\\numpy\\lib\\format.py',
   'PYMODULE'),
  ('numpy.lib.arraysetops',
   'c:\\users\\admin\\appdata\\local\\programs\\python\\python38\\lib\\site-packages\\numpy\\lib\\arraysetops.py',
   'PYMODULE'),
  ('numpy.lib.utils',
   'c:\\users\\admin\\appdata\\local\\programs\\python\\python38\\lib\\site-packages\\numpy\\lib\\utils.py',
   'PYMODULE'),
  ('numpy.lib.polynomial',
   'c:\\users\\admin\\appdata\\local\\programs\\python\\python38\\lib\\site-packages\\numpy\\lib\\polynomial.py',
   'PYMODULE'),
  ('numpy.lib.ufunclike',
   'c:\\users\\admin\\appdata\\local\\programs\\python\\python38\\lib\\site-packages\\numpy\\lib\\ufunclike.py',
   'PYMODULE'),
  ('numpy.lib.shape_base',
   'c:\\users\\admin\\appdata\\local\\programs\\python\\python38\\lib\\site-packages\\numpy\\lib\\shape_base.py',
   'PYMODULE'),
  ('numpy.lib.nanfunctions',
   'c:\\users\\admin\\appdata\\local\\programs\\python\\python38\\lib\\site-packages\\numpy\\lib\\nanfunctions.py',
   'PYMODULE'),
  ('numpy.lib.type_check',
   'c:\\users\\admin\\appdata\\local\\programs\\python\\python38\\lib\\site-packages\\numpy\\lib\\type_check.py',
   'PYMODULE'),
  ('numpy.core.getlimits',
   'c:\\users\\admin\\appdata\\local\\programs\\python\\python38\\lib\\site-packages\\numpy\\core\\getlimits.py',
   'PYMODULE'),
  ('numpy.core.machar',
   'c:\\users\\admin\\appdata\\local\\programs\\python\\python38\\lib\\site-packages\\numpy\\core\\machar.py',
   'PYMODULE'),
  ('numpy.lib.scimath',
   'c:\\users\\admin\\appdata\\local\\programs\\python\\python38\\lib\\site-packages\\numpy\\lib\\scimath.py',
   'PYMODULE'),
  ('numpy.lib.mixins',
   'c:\\users\\admin\\appdata\\local\\programs\\python\\python38\\lib\\site-packages\\numpy\\lib\\mixins.py',
   'PYMODULE'),
  ('numpy.compat',
   'c:\\users\\admin\\appdata\\local\\programs\\python\\python38\\lib\\site-packages\\numpy\\compat\\__init__.py',
   'PYMODULE'),
  ('numpy.compat.py3k',
   'c:\\users\\admin\\appdata\\local\\programs\\python\\python38\\lib\\site-packages\\numpy\\compat\\py3k.py',
   'PYMODULE'),
  ('numpy.core',
   'c:\\users\\admin\\appdata\\local\\programs\\python\\python38\\lib\\site-packages\\numpy\\core\\__init__.py',
   'PYMODULE'),
  ('numpy.core._add_newdocs',
   'c:\\users\\admin\\appdata\\local\\programs\\python\\python38\\lib\\site-packages\\numpy\\core\\_add_newdocs.py',
   'PYMODULE'),
  ('numpy.core.einsumfunc',
   'c:\\users\\admin\\appdata\\local\\programs\\python\\python38\\lib\\site-packages\\numpy\\core\\einsumfunc.py',
   'PYMODULE'),
  ('numpy.core.memmap',
   'c:\\users\\admin\\appdata\\local\\programs\\python\\python38\\lib\\site-packages\\numpy\\core\\memmap.py',
   'PYMODULE'),
  ('numpy.core.defchararray',
   'c:\\users\\admin\\appdata\\local\\programs\\python\\python38\\lib\\site-packages\\numpy\\core\\defchararray.py',
   'PYMODULE'),
  ('numpy._distributor_init',
   'c:\\users\\admin\\appdata\\local\\programs\\python\\python38\\lib\\site-packages\\numpy\\_distributor_init.py',
   'PYMODULE'),
  ('numpy.version',
   'c:\\users\\admin\\appdata\\local\\programs\\python\\python38\\lib\\site-packages\\numpy\\version.py',
   'PYMODULE'),
  ('numpy.__config__',
   'c:\\users\\admin\\appdata\\local\\programs\\python\\python38\\lib\\site-packages\\numpy\\__config__.py',
   'PYMODULE'),
  ('numpy._globals',
   'c:\\users\\admin\\appdata\\local\\programs\\python\\python38\\lib\\site-packages\\numpy\\_globals.py',
   'PYMODULE'),
  ('pygame.sndarray',
   'C:\\Users\\Admin\\AppData\\Roaming\\Python\\Python38\\site-packages\\pygame\\sndarray.py',
   'PYMODULE'),
  ('pygame._numpysndarray',
   'C:\\Users\\Admin\\AppData\\Roaming\\Python\\Python38\\site-packages\\pygame\\_numpysndarray.py',
   'PYMODULE'),
  ('pygame.surfarray',
   'C:\\Users\\Admin\\AppData\\Roaming\\Python\\Python38\\site-packages\\pygame\\surfarray.py',
   'PYMODULE'),
  ('pygame._numpysurfarray',
   'C:\\Users\\Admin\\AppData\\Roaming\\Python\\Python38\\site-packages\\pygame\\_numpysurfarray.py',
   'PYMODULE'),
  ('pygame.sysfont',
   'C:\\Users\\Admin\\AppData\\Roaming\\Python\\Python38\\site-packages\\pygame\\sysfont.py',
   'PYMODULE'),
  ('xml.etree.ElementTree',
   'c:\\users\\admin\\appdata\\local\\programs\\python\\python38\\lib\\xml\\etree\\ElementTree.py',
   'PYMODULE'),
  ('xml.etree.cElementTree',
   'c:\\users\\admin\\appdata\\local\\programs\\python\\python38\\lib\\xml\\etree\\cElementTree.py',
   'PYMODULE'),
  ('xml.etree.ElementInclude',
   'c:\\users\\admin\\appdata\\local\\programs\\python\\python38\\lib\\xml\\etree\\ElementInclude.py',
   'PYMODULE'),
  ('xml.etree.ElementPath',
   'c:\\users\\admin\\appdata\\local\\programs\\python\\python38\\lib\\xml\\etree\\ElementPath.py',
   'PYMODULE'),
  ('xml.etree',
   'c:\\users\\admin\\appdata\\local\\programs\\python\\python38\\lib\\xml\\etree\\__init__.py',
   'PYMODULE'),
  ('pygame.ftfont',
   'C:\\Users\\Admin\\AppData\\Roaming\\Python\\Python38\\site-packages\\pygame\\ftfont.py',
   'PYMODULE'),
  ('pygame.threads',
   'C:\\Users\\Admin\\AppData\\Roaming\\Python\\Python38\\site-packages\\pygame\\threads\\__init__.py',
   'PYMODULE'),
  ('pygame.sprite',
   'C:\\Users\\Admin\\AppData\\Roaming\\Python\\Python38\\site-packages\\pygame\\sprite.py',
   'PYMODULE'),
  ('pygame.cursors',
   'C:\\Users\\Admin\\AppData\\Roaming\\Python\\Python38\\site-packages\\pygame\\cursors.py',
   'PYMODULE'),
  ('pygame.compat',
   'C:\\Users\\Admin\\AppData\\Roaming\\Python\\Python38\\site-packages\\pygame\\compat.py',
   'PYMODULE'),
  ('pygame.version',
   'C:\\Users\\Admin\\AppData\\Roaming\\Python\\Python38\\site-packages\\pygame\\version.py',
   'PYMODULE'),
  ('Engine', 'D:\\chess AI\\BigProject\\Chess\\Engine.py', 'PYMODULE')],
 [('VCRUNTIME140.dll',
   'c:\\users\\admin\\appdata\\local\\programs\\python\\python38\\VCRUNTIME140.dll',
   'BINARY'),
  ('python38.dll',
   'c:\\users\\admin\\appdata\\local\\programs\\python\\python38\\python38.dll',
   'BINARY'),
  ('libopusfile-0.dll',
   'C:\\Users\\Admin\\AppData\\Roaming\\Python\\Python38\\site-packages\\pygame\\libopusfile-0.dll',
   'BINARY'),
  ('SDL2.dll',
   'C:\\Users\\Admin\\AppData\\Roaming\\Python\\Python38\\site-packages\\pygame\\SDL2.dll',
   'BINARY'),
  ('SDL2_ttf.dll',
   'C:\\Users\\Admin\\AppData\\Roaming\\Python\\Python38\\site-packages\\pygame\\SDL2_ttf.dll',
   'BINARY'),
  ('libmodplug-1.dll',
   'C:\\Users\\Admin\\AppData\\Roaming\\Python\\Python38\\site-packages\\pygame\\libmodplug-1.dll',
   'BINARY'),
  ('libfreetype-6.dll',
   'C:\\Users\\Admin\\AppData\\Roaming\\Python\\Python38\\site-packages\\pygame\\libfreetype-6.dll',
   'BINARY'),
  ('libmpg123-0.dll',
   'C:\\Users\\Admin\\AppData\\Roaming\\Python\\Python38\\site-packages\\pygame\\libmpg123-0.dll',
   'BINARY'),
  ('libvorbis-0.dll',
   'C:\\Users\\Admin\\AppData\\Roaming\\Python\\Python38\\site-packages\\pygame\\libvorbis-0.dll',
   'BINARY'),
  ('libjpeg-9.dll',
   'C:\\Users\\Admin\\AppData\\Roaming\\Python\\Python38\\site-packages\\pygame\\libjpeg-9.dll',
   'BINARY'),
  ('SDL2_mixer.dll',
   'C:\\Users\\Admin\\AppData\\Roaming\\Python\\Python38\\site-packages\\pygame\\SDL2_mixer.dll',
   'BINARY'),
  ('pythoncom38.dll',
   'c:\\users\\admin\\appdata\\local\\programs\\python\\python38\\lib\\site-packages\\pywin32_system32\\pythoncom38.dll',
   'BINARY'),
  ('libtiff-5.dll',
   'C:\\Users\\Admin\\AppData\\Roaming\\Python\\Python38\\site-packages\\pygame\\libtiff-5.dll',
   'BINARY'),
  ('libopus-0.dll',
   'C:\\Users\\Admin\\AppData\\Roaming\\Python\\Python38\\site-packages\\pygame\\libopus-0.dll',
   'BINARY'),
  ('libFLAC-8.dll',
   'C:\\Users\\Admin\\AppData\\Roaming\\Python\\Python38\\site-packages\\pygame\\libFLAC-8.dll',
   'BINARY'),
  ('libwebp-7.dll',
   'C:\\Users\\Admin\\AppData\\Roaming\\Python\\Python38\\site-packages\\pygame\\libwebp-7.dll',
   'BINARY'),
  ('zlib1.dll',
   'C:\\Users\\Admin\\AppData\\Roaming\\Python\\Python38\\site-packages\\pygame\\zlib1.dll',
   'BINARY'),
  ('libvorbisfile-3.dll',
   'C:\\Users\\Admin\\AppData\\Roaming\\Python\\Python38\\site-packages\\pygame\\libvorbisfile-3.dll',
   'BINARY'),
  ('pywintypes38.dll',
   'c:\\users\\admin\\appdata\\local\\programs\\python\\python38\\lib\\site-packages\\pywin32_system32\\pywintypes38.dll',
   'BINARY'),
  ('libopenblas.WCDJNK7YVMPZQ2ME2ZZHJJRJ3JIKNDB7.gfortran-win_amd64.dll',
   'c:\\users\\admin\\appdata\\local\\programs\\python\\python38\\lib\\site-packages\\numpy\\.libs\\libopenblas.WCDJNK7YVMPZQ2ME2ZZHJJRJ3JIKNDB7.gfortran-win_amd64.dll',
   'BINARY'),
  ('SDL2_image.dll',
   'C:\\Users\\Admin\\AppData\\Roaming\\Python\\Python38\\site-packages\\pygame\\SDL2_image.dll',
   'BINARY'),
  ('portmidi.dll',
   'C:\\Users\\Admin\\AppData\\Roaming\\Python\\Python38\\site-packages\\pygame\\portmidi.dll',
   'BINARY'),
  ('libogg-0.dll',
   'C:\\Users\\Admin\\AppData\\Roaming\\Python\\Python38\\site-packages\\pygame\\libogg-0.dll',
   'BINARY'),
  ('libpng16-16.dll',
   'C:\\Users\\Admin\\AppData\\Roaming\\Python\\Python38\\site-packages\\pygame\\libpng16-16.dll',
   'BINARY'),
  ('win32trace',
   'c:\\users\\admin\\appdata\\local\\programs\\python\\python38\\lib\\site-packages\\win32\\win32trace.pyd',
   'EXTENSION'),
  ('win32ui',
   'c:\\users\\admin\\appdata\\local\\programs\\python\\python38\\lib\\site-packages\\Pythonwin\\win32ui.pyd',
   'EXTENSION'),
  ('_lzma',
   'c:\\users\\admin\\appdata\\local\\programs\\python\\python38\\DLLs\\_lzma.pyd',
   'EXTENSION'),
  ('_bz2',
   'c:\\users\\admin\\appdata\\local\\programs\\python\\python38\\DLLs\\_bz2.pyd',
   'EXTENSION'),
  ('unicodedata',
   'c:\\users\\admin\\appdata\\local\\programs\\python\\python38\\DLLs\\unicodedata.pyd',
   'EXTENSION'),
  ('select',
   'c:\\users\\admin\\appdata\\local\\programs\\python\\python38\\DLLs\\select.pyd',
   'EXTENSION'),
  ('_socket',
   'c:\\users\\admin\\appdata\\local\\programs\\python\\python38\\DLLs\\_socket.pyd',
   'EXTENSION'),
  ('_overlapped',
   'c:\\users\\admin\\appdata\\local\\programs\\python\\python38\\DLLs\\_overlapped.pyd',
   'EXTENSION'),
  ('_ssl',
   'c:\\users\\admin\\appdata\\local\\programs\\python\\python38\\DLLs\\_ssl.pyd',
   'EXTENSION'),
  ('_asyncio',
   'c:\\users\\admin\\appdata\\local\\programs\\python\\python38\\DLLs\\_asyncio.pyd',
   'EXTENSION'),
  ('_queue',
   'c:\\users\\admin\\appdata\\local\\programs\\python\\python38\\DLLs\\_queue.pyd',
   'EXTENSION'),
  ('_ctypes',
   'c:\\users\\admin\\appdata\\local\\programs\\python\\python38\\DLLs\\_ctypes.pyd',
   'EXTENSION'),
  ('_multiprocessing',
   'c:\\users\\admin\\appdata\\local\\programs\\python\\python38\\DLLs\\_multiprocessing.pyd',
   'EXTENSION'),
  ('pyexpat',
   'c:\\users\\admin\\appdata\\local\\programs\\python\\python38\\DLLs\\pyexpat.pyd',
   'EXTENSION'),
  ('_decimal',
   'c:\\users\\admin\\appdata\\local\\programs\\python\\python38\\DLLs\\_decimal.pyd',
   'EXTENSION'),
  ('_hashlib',
   'c:\\users\\admin\\appdata\\local\\programs\\python\\python38\\DLLs\\_hashlib.pyd',
   'EXTENSION'),
  ('_win32sysloader',
   'c:\\users\\admin\\appdata\\local\\programs\\python\\python38\\lib\\site-packages\\win32\\_win32sysloader.pyd',
   'EXTENSION'),
  ('win32api',
   'c:\\users\\admin\\appdata\\local\\programs\\python\\python38\\lib\\site-packages\\win32\\win32api.pyd',
   'EXTENSION'),
  ('win32wnet',
   'c:\\users\\admin\\appdata\\local\\programs\\python\\python38\\lib\\site-packages\\win32\\win32wnet.pyd',
   'EXTENSION'),
  ('win32com.shell.shell',
   'c:\\users\\admin\\appdata\\local\\programs\\python\\python38\\lib\\site-packages\\win32comext\\shell\\shell.pyd',
   'EXTENSION'),
  ('numpy.core._multiarray_tests',
   'c:\\users\\admin\\appdata\\local\\programs\\python\\python38\\lib\\site-packages\\numpy\\core\\_multiarray_tests.cp38-win_amd64.pyd',
   'EXTENSION'),
  ('numpy.core._multiarray_umath',
   'c:\\users\\admin\\appdata\\local\\programs\\python\\python38\\lib\\site-packages\\numpy\\core\\_multiarray_umath.cp38-win_amd64.pyd',
   'EXTENSION'),
  ('win32pdh',
   'c:\\users\\admin\\appdata\\local\\programs\\python\\python38\\lib\\site-packages\\win32\\win32pdh.pyd',
   'EXTENSION'),
  ('numpy.linalg.lapack_lite',
   'c:\\users\\admin\\appdata\\local\\programs\\python\\python38\\lib\\site-packages\\numpy\\linalg\\lapack_lite.cp38-win_amd64.pyd',
   'EXTENSION'),
  ('numpy.random.mtrand',
   'c:\\users\\admin\\appdata\\local\\programs\\python\\python38\\lib\\site-packages\\numpy\\random\\mtrand.cp38-win_amd64.pyd',
   'EXTENSION'),
  ('numpy.random._sfc64',
   'c:\\users\\admin\\appdata\\local\\programs\\python\\python38\\lib\\site-packages\\numpy\\random\\_sfc64.cp38-win_amd64.pyd',
   'EXTENSION'),
  ('numpy.random._philox',
   'c:\\users\\admin\\appdata\\local\\programs\\python\\python38\\lib\\site-packages\\numpy\\random\\_philox.cp38-win_amd64.pyd',
   'EXTENSION'),
  ('numpy.random._pcg64',
   'c:\\users\\admin\\appdata\\local\\programs\\python\\python38\\lib\\site-packages\\numpy\\random\\_pcg64.cp38-win_amd64.pyd',
   'EXTENSION'),
  ('numpy.random._mt19937',
   'c:\\users\\admin\\appdata\\local\\programs\\python\\python38\\lib\\site-packages\\numpy\\random\\_mt19937.cp38-win_amd64.pyd',
   'EXTENSION'),
  ('numpy.random.bit_generator',
   'c:\\users\\admin\\appdata\\local\\programs\\python\\python38\\lib\\site-packages\\numpy\\random\\bit_generator.cp38-win_amd64.pyd',
   'EXTENSION'),
  ('numpy.random._generator',
   'c:\\users\\admin\\appdata\\local\\programs\\python\\python38\\lib\\site-packages\\numpy\\random\\_generator.cp38-win_amd64.pyd',
   'EXTENSION'),
  ('numpy.random._bounded_integers',
   'c:\\users\\admin\\appdata\\local\\programs\\python\\python38\\lib\\site-packages\\numpy\\random\\_bounded_integers.cp38-win_amd64.pyd',
   'EXTENSION'),
  ('numpy.random._common',
   'c:\\users\\admin\\appdata\\local\\programs\\python\\python38\\lib\\site-packages\\numpy\\random\\_common.cp38-win_amd64.pyd',
   'EXTENSION'),
  ('numpy.fft._pocketfft_internal',
   'c:\\users\\admin\\appdata\\local\\programs\\python\\python38\\lib\\site-packages\\numpy\\fft\\_pocketfft_internal.cp38-win_amd64.pyd',
   'EXTENSION'),
  ('numpy.linalg._umath_linalg',
   'c:\\users\\admin\\appdata\\local\\programs\\python\\python38\\lib\\site-packages\\numpy\\linalg\\_umath_linalg.cp38-win_amd64.pyd',
   'EXTENSION'),
  ('pygame.imageext',
   'C:\\Users\\Admin\\AppData\\Roaming\\Python\\Python38\\site-packages\\pygame\\imageext.cp38-win_amd64.pyd',
   'EXTENSION'),
  ('pygame.fastevent',
   'C:\\Users\\Admin\\AppData\\Roaming\\Python\\Python38\\site-packages\\pygame\\fastevent.cp38-win_amd64.pyd',
   'EXTENSION'),
  ('pygame.scrap',
   'C:\\Users\\Admin\\AppData\\Roaming\\Python\\Python38\\site-packages\\pygame\\scrap.cp38-win_amd64.pyd',
   'EXTENSION'),
  ('pygame.mixer',
   'C:\\Users\\Admin\\AppData\\Roaming\\Python\\Python38\\site-packages\\pygame\\mixer.cp38-win_amd64.pyd',
   'EXTENSION'),
  ('pygame.mixer_music',
   'C:\\Users\\Admin\\AppData\\Roaming\\Python\\Python38\\site-packages\\pygame\\mixer_music.cp38-win_amd64.pyd',
   'EXTENSION'),
  ('_elementtree',
   'c:\\users\\admin\\appdata\\local\\programs\\python\\python38\\DLLs\\_elementtree.pyd',
   'EXTENSION'),
  ('pygame.font',
   'C:\\Users\\Admin\\AppData\\Roaming\\Python\\Python38\\site-packages\\pygame\\font.cp38-win_amd64.pyd',
   'EXTENSION'),
  ('pygame._freetype',
   'C:\\Users\\Admin\\AppData\\Roaming\\Python\\Python38\\site-packages\\pygame\\_freetype.cp38-win_amd64.pyd',
   'EXTENSION'),
  ('pygame.transform',
   'C:\\Users\\Admin\\AppData\\Roaming\\Python\\Python38\\site-packages\\pygame\\transform.cp38-win_amd64.pyd',
   'EXTENSION'),
  ('pygame.time',
   'C:\\Users\\Admin\\AppData\\Roaming\\Python\\Python38\\site-packages\\pygame\\time.cp38-win_amd64.pyd',
   'EXTENSION'),
  ('pygame.pixelarray',
   'C:\\Users\\Admin\\AppData\\Roaming\\Python\\Python38\\site-packages\\pygame\\pixelarray.cp38-win_amd64.pyd',
   'EXTENSION'),
  ('pygame.mask',
   'C:\\Users\\Admin\\AppData\\Roaming\\Python\\Python38\\site-packages\\pygame\\mask.cp38-win_amd64.pyd',
   'EXTENSION'),
  ('pygame.surface',
   'C:\\Users\\Admin\\AppData\\Roaming\\Python\\Python38\\site-packages\\pygame\\surface.cp38-win_amd64.pyd',
   'EXTENSION'),
  ('pygame.pixelcopy',
   'C:\\Users\\Admin\\AppData\\Roaming\\Python\\Python38\\site-packages\\pygame\\pixelcopy.cp38-win_amd64.pyd',
   'EXTENSION'),
  ('pygame.mouse',
   'C:\\Users\\Admin\\AppData\\Roaming\\Python\\Python38\\site-packages\\pygame\\mouse.cp38-win_amd64.pyd',
   'EXTENSION'),
  ('pygame.key',
   'C:\\Users\\Admin\\AppData\\Roaming\\Python\\Python38\\site-packages\\pygame\\key.cp38-win_amd64.pyd',
   'EXTENSION'),
  ('pygame.joystick',
   'C:\\Users\\Admin\\AppData\\Roaming\\Python\\Python38\\site-packages\\pygame\\joystick.cp38-win_amd64.pyd',
   'EXTENSION'),
  ('pygame.image',
   'C:\\Users\\Admin\\AppData\\Roaming\\Python\\Python38\\site-packages\\pygame\\image.cp38-win_amd64.pyd',
   'EXTENSION'),
  ('pygame.event',
   'C:\\Users\\Admin\\AppData\\Roaming\\Python\\Python38\\site-packages\\pygame\\event.cp38-win_amd64.pyd',
   'EXTENSION'),
  ('pygame.draw',
   'C:\\Users\\Admin\\AppData\\Roaming\\Python\\Python38\\site-packages\\pygame\\draw.cp38-win_amd64.pyd',
   'EXTENSION'),
  ('pygame.display',
   'C:\\Users\\Admin\\AppData\\Roaming\\Python\\Python38\\site-packages\\pygame\\display.cp38-win_amd64.pyd',
   'EXTENSION'),
  ('pygame.math',
   'C:\\Users\\Admin\\AppData\\Roaming\\Python\\Python38\\site-packages\\pygame\\math.cp38-win_amd64.pyd',
   'EXTENSION'),
  ('pygame.bufferproxy',
   'C:\\Users\\Admin\\AppData\\Roaming\\Python\\Python38\\site-packages\\pygame\\bufferproxy.cp38-win_amd64.pyd',
   'EXTENSION'),
  ('pygame.color',
   'C:\\Users\\Admin\\AppData\\Roaming\\Python\\Python38\\site-packages\\pygame\\color.cp38-win_amd64.pyd',
   'EXTENSION'),
  ('pygame.surflock',
   'C:\\Users\\Admin\\AppData\\Roaming\\Python\\Python38\\site-packages\\pygame\\surflock.cp38-win_amd64.pyd',
   'EXTENSION'),
  ('pygame.rwobject',
   'C:\\Users\\Admin\\AppData\\Roaming\\Python\\Python38\\site-packages\\pygame\\rwobject.cp38-win_amd64.pyd',
   'EXTENSION'),
  ('pygame.rect',
   'C:\\Users\\Admin\\AppData\\Roaming\\Python\\Python38\\site-packages\\pygame\\rect.cp38-win_amd64.pyd',
   'EXTENSION'),
  ('pygame.constants',
   'C:\\Users\\Admin\\AppData\\Roaming\\Python\\Python38\\site-packages\\pygame\\constants.cp38-win_amd64.pyd',
   'EXTENSION'),
  ('pygame.base',
   'C:\\Users\\Admin\\AppData\\Roaming\\Python\\Python38\\site-packages\\pygame\\base.cp38-win_amd64.pyd',
   'EXTENSION'),
  ('mfc140u.dll',
   'c:\\users\\admin\\appdata\\local\\programs\\python\\python38\\lib\\site-packages\\Pythonwin\\mfc140u.dll',
   'BINARY'),
  ('libcrypto-1_1.dll',
   'c:\\users\\admin\\appdata\\local\\programs\\python\\python38\\DLLs\\libcrypto-1_1.dll',
   'BINARY'),
  ('libssl-1_1.dll',
   'c:\\users\\admin\\appdata\\local\\programs\\python\\python38\\DLLs\\libssl-1_1.dll',
   'BINARY'),
  ('libffi-7.dll',
   'c:\\users\\admin\\appdata\\local\\programs\\python\\python38\\DLLs\\libffi-7.dll',
   'BINARY')],
 [],
 [],
 [('base_library.zip',
   'D:\\chess AI\\BigProject\\Chess\\build\\Main\\base_library.zip',
   'DATA'),
  ('pygame\\freesansbold.ttf',
   'C:\\Users\\Admin\\AppData\\Roaming\\Python\\Python38\\site-packages\\pygame\\freesansbold.ttf',
   'DATA'),
  ('pygame\\pygame_icon.bmp',
   'C:\\Users\\Admin\\AppData\\Roaming\\Python\\Python38\\site-packages\\pygame\\pygame_icon.bmp',
   'DATA'),
  ('pyinstaller-4.5.1.dist-info\\REQUESTED',
   'c:\\users\\admin\\appdata\\local\\programs\\python\\python38\\lib\\site-packages\\pyinstaller-4.5.1.dist-info\\REQUESTED',
   'DATA'),
  ('setuptools-49.2.1.dist-info\\LICENSE',
   'c:\\users\\admin\\appdata\\local\\programs\\python\\python38\\lib\\site-packages\\setuptools-49.2.1.dist-info\\LICENSE',
   'DATA'),
  ('wheel-0.36.2.dist-info\\INSTALLER',
   'c:\\users\\admin\\appdata\\local\\programs\\python\\python38\\lib\\site-packages\\wheel-0.36.2.dist-info\\INSTALLER',
   'DATA'),
  ('pyinstaller-4.5.1.dist-info\\entry_points.txt',
   'c:\\users\\admin\\appdata\\local\\programs\\python\\python38\\lib\\site-packages\\pyinstaller-4.5.1.dist-info\\entry_points.txt',
   'DATA'),
  ('setuptools-49.2.1.dist-info\\METADATA',
   'c:\\users\\admin\\appdata\\local\\programs\\python\\python38\\lib\\site-packages\\setuptools-49.2.1.dist-info\\METADATA',
   'DATA'),
  ('wheel-0.36.2.dist-info\\METADATA',
   'c:\\users\\admin\\appdata\\local\\programs\\python\\python38\\lib\\site-packages\\wheel-0.36.2.dist-info\\METADATA',
   'DATA'),
  ('pip-21.0.1.dist-info\\entry_points.txt',
   'c:\\users\\admin\\appdata\\local\\programs\\python\\python38\\lib\\site-packages\\pip-21.0.1.dist-info\\entry_points.txt',
   'DATA'),
  ('pyinstaller-4.5.1.dist-info\\METADATA',
   'c:\\users\\admin\\appdata\\local\\programs\\python\\python38\\lib\\site-packages\\pyinstaller-4.5.1.dist-info\\METADATA',
   'DATA'),
  ('altgraph-0.17.2.dist-info\\METADATA',
   'c:\\users\\admin\\appdata\\local\\programs\\python\\python38\\lib\\site-packages\\altgraph-0.17.2.dist-info\\METADATA',
   'DATA'),
  ('pip-21.0.1.dist-info\\RECORD',
   'c:\\users\\admin\\appdata\\local\\programs\\python\\python38\\lib\\site-packages\\pip-21.0.1.dist-info\\RECORD',
   'DATA'),
  ('wheel-0.36.2.dist-info\\top_level.txt',
   'c:\\users\\admin\\appdata\\local\\programs\\python\\python38\\lib\\site-packages\\wheel-0.36.2.dist-info\\top_level.txt',
   'DATA'),
  ('setuptools-49.2.1.dist-info\\INSTALLER',
   'c:\\users\\admin\\appdata\\local\\programs\\python\\python38\\lib\\site-packages\\setuptools-49.2.1.dist-info\\INSTALLER',
   'DATA'),
  ('wheel-0.36.2.dist-info\\LICENSE.txt',
   'c:\\users\\admin\\appdata\\local\\programs\\python\\python38\\lib\\site-packages\\wheel-0.36.2.dist-info\\LICENSE.txt',
   'DATA'),
  ('altgraph-0.17.2.dist-info\\WHEEL',
   'c:\\users\\admin\\appdata\\local\\programs\\python\\python38\\lib\\site-packages\\altgraph-0.17.2.dist-info\\WHEEL',
   'DATA'),
  ('altgraph-0.17.2.dist-info\\top_level.txt',
   'c:\\users\\admin\\appdata\\local\\programs\\python\\python38\\lib\\site-packages\\altgraph-0.17.2.dist-info\\top_level.txt',
   'DATA'),
  ('setuptools-49.2.1.dist-info\\zip-safe',
   'c:\\users\\admin\\appdata\\local\\programs\\python\\python38\\lib\\site-packages\\setuptools-49.2.1.dist-info\\zip-safe',
   'DATA'),
  ('pip-21.0.1.dist-info\\LICENSE.txt',
   'c:\\users\\admin\\appdata\\local\\programs\\python\\python38\\lib\\site-packages\\pip-21.0.1.dist-info\\LICENSE.txt',
   'DATA'),
  ('altgraph-0.17.2.dist-info\\INSTALLER',
   'c:\\users\\admin\\appdata\\local\\programs\\python\\python38\\lib\\site-packages\\altgraph-0.17.2.dist-info\\INSTALLER',
   'DATA'),
  ('setuptools-49.2.1.dist-info\\REQUESTED',
   'c:\\users\\admin\\appdata\\local\\programs\\python\\python38\\lib\\site-packages\\setuptools-49.2.1.dist-info\\REQUESTED',
   'DATA'),
  ('wheel-0.36.2.dist-info\\WHEEL',
   'c:\\users\\admin\\appdata\\local\\programs\\python\\python38\\lib\\site-packages\\wheel-0.36.2.dist-info\\WHEEL',
   'DATA'),
  ('wheel-0.36.2.dist-info\\entry_points.txt',
   'c:\\users\\admin\\appdata\\local\\programs\\python\\python38\\lib\\site-packages\\wheel-0.36.2.dist-info\\entry_points.txt',
   'DATA'),
  ('pip-21.0.1.dist-info\\top_level.txt',
   'c:\\users\\admin\\appdata\\local\\programs\\python\\python38\\lib\\site-packages\\pip-21.0.1.dist-info\\top_level.txt',
   'DATA'),
  ('wheel-0.36.2.dist-info\\RECORD',
   'c:\\users\\admin\\appdata\\local\\programs\\python\\python38\\lib\\site-packages\\wheel-0.36.2.dist-info\\RECORD',
   'DATA'),
  ('wheel-0.36.2.dist-info\\REQUESTED',
   'c:\\users\\admin\\appdata\\local\\programs\\python\\python38\\lib\\site-packages\\wheel-0.36.2.dist-info\\REQUESTED',
   'DATA'),
  ('altgraph-0.17.2.dist-info\\RECORD',
   'c:\\users\\admin\\appdata\\local\\programs\\python\\python38\\lib\\site-packages\\altgraph-0.17.2.dist-info\\RECORD',
   'DATA'),
  ('pyinstaller-4.5.1.dist-info\\WHEEL',
   'c:\\users\\admin\\appdata\\local\\programs\\python\\python38\\lib\\site-packages\\pyinstaller-4.5.1.dist-info\\WHEEL',
   'DATA'),
  ('altgraph-0.17.2.dist-info\\LICENSE',
   'c:\\users\\admin\\appdata\\local\\programs\\python\\python38\\lib\\site-packages\\altgraph-0.17.2.dist-info\\LICENSE',
   'DATA'),
  ('setuptools-49.2.1.dist-info\\top_level.txt',
   'c:\\users\\admin\\appdata\\local\\programs\\python\\python38\\lib\\site-packages\\setuptools-49.2.1.dist-info\\top_level.txt',
   'DATA'),
  ('pyinstaller-4.5.1.dist-info\\RECORD',
   'c:\\users\\admin\\appdata\\local\\programs\\python\\python38\\lib\\site-packages\\pyinstaller-4.5.1.dist-info\\RECORD',
   'DATA'),
  ('altgraph-0.17.2.dist-info\\zip-safe',
   'c:\\users\\admin\\appdata\\local\\programs\\python\\python38\\lib\\site-packages\\altgraph-0.17.2.dist-info\\zip-safe',
   'DATA'),
  ('setuptools-49.2.1.dist-info\\dependency_links.txt',
   'c:\\users\\admin\\appdata\\local\\programs\\python\\python38\\lib\\site-packages\\setuptools-49.2.1.dist-info\\dependency_links.txt',
   'DATA'),
  ('setuptools-49.2.1.dist-info\\entry_points.txt',
   'c:\\users\\admin\\appdata\\local\\programs\\python\\python38\\lib\\site-packages\\setuptools-49.2.1.dist-info\\entry_points.txt',
   'DATA'),
  ('pip-21.0.1.dist-info\\WHEEL',
   'c:\\users\\admin\\appdata\\local\\programs\\python\\python38\\lib\\site-packages\\pip-21.0.1.dist-info\\WHEEL',
   'DATA'),
  ('pip-21.0.1.dist-info\\INSTALLER',
   'c:\\users\\admin\\appdata\\local\\programs\\python\\python38\\lib\\site-packages\\pip-21.0.1.dist-info\\INSTALLER',
   'DATA'),
  ('pyinstaller-4.5.1.dist-info\\INSTALLER',
   'c:\\users\\admin\\appdata\\local\\programs\\python\\python38\\lib\\site-packages\\pyinstaller-4.5.1.dist-info\\INSTALLER',
   'DATA'),
  ('pip-21.0.1.dist-info\\METADATA',
   'c:\\users\\admin\\appdata\\local\\programs\\python\\python38\\lib\\site-packages\\pip-21.0.1.dist-info\\METADATA',
   'DATA'),
  ('pyinstaller-4.5.1.dist-info\\COPYING.txt',
   'c:\\users\\admin\\appdata\\local\\programs\\python\\python38\\lib\\site-packages\\pyinstaller-4.5.1.dist-info\\COPYING.txt',
   'DATA'),
  ('setuptools-49.2.1.dist-info\\RECORD',
   'c:\\users\\admin\\appdata\\local\\programs\\python\\python38\\lib\\site-packages\\setuptools-49.2.1.dist-info\\RECORD',
   'DATA'),
  ('setuptools-49.2.1.dist-info\\WHEEL',
   'c:\\users\\admin\\appdata\\local\\programs\\python\\python38\\lib\\site-packages\\setuptools-49.2.1.dist-info\\WHEEL',
   'DATA'),
  ('pyinstaller-4.5.1.dist-info\\top_level.txt',
   'c:\\users\\admin\\appdata\\local\\programs\\python\\python38\\lib\\site-packages\\pyinstaller-4.5.1.dist-info\\top_level.txt',
   'DATA'),
  ('pip-21.0.1.dist-info\\REQUESTED',
   'c:\\users\\admin\\appdata\\local\\programs\\python\\python38\\lib\\site-packages\\pip-21.0.1.dist-info\\REQUESTED',
   'DATA')],
 [])
