([('Main.exe',
   'D:\\chess AI\\BigProject\\Chess\\build\\Main\\Main.exe',
   'EXECUTABLE'),
  ('Main.exe.manifest',
   'D:\\chess AI\\BigProject\\Chess\\build\\Main\\Main.exe.manifest',
   'BINARY'),
  ('VCRUNTIME140.dll',
   'c:\\users\\admin\\appdata\\local\\programs\\python\\python38\\VCRUNTIME140.dll',
   'BINARY'),
  ('python38.dll',
   'c:\\users\\admin\\appdata\\local\\programs\\python\\python38\\python38.dll',
   'BINARY'),
  ('libopusfile-0.dll',
   'C:\\Users\\Admin\\AppData\\Roaming\\Python\\Python38\\site-packages\\pygame\\libopusfile-0.dll',
   'BINARY'),
  ('SDL2.dll',
   'C:\\Users\\Admin\\AppData\\Roaming\\Python\\Python38\\site-packages\\pygame\\SDL2.dll',
   'BINARY'),
  ('SDL2_ttf.dll',
   'C:\\Users\\Admin\\AppData\\Roaming\\Python\\Python38\\site-packages\\pygame\\SDL2_ttf.dll',
   'BINARY'),
  ('libmodplug-1.dll',
   'C:\\Users\\Admin\\AppData\\Roaming\\Python\\Python38\\site-packages\\pygame\\libmodplug-1.dll',
   'BINARY'),
  ('libfreetype-6.dll',
   'C:\\Users\\Admin\\AppData\\Roaming\\Python\\Python38\\site-packages\\pygame\\libfreetype-6.dll',
   'BINARY'),
  ('libmpg123-0.dll',
   'C:\\Users\\Admin\\AppData\\Roaming\\Python\\Python38\\site-packages\\pygame\\libmpg123-0.dll',
   'BINARY'),
  ('libvorbis-0.dll',
   'C:\\Users\\Admin\\AppData\\Roaming\\Python\\Python38\\site-packages\\pygame\\libvorbis-0.dll',
   'BINARY'),
  ('libjpeg-9.dll',
   'C:\\Users\\Admin\\AppData\\Roaming\\Python\\Python38\\site-packages\\pygame\\libjpeg-9.dll',
   'BINARY'),
  ('SDL2_mixer.dll',
   'C:\\Users\\Admin\\AppData\\Roaming\\Python\\Python38\\site-packages\\pygame\\SDL2_mixer.dll',
   'BINARY'),
  ('pythoncom38.dll',
   'c:\\users\\admin\\appdata\\local\\programs\\python\\python38\\lib\\site-packages\\pywin32_system32\\pythoncom38.dll',
   'BINARY'),
  ('libtiff-5.dll',
   'C:\\Users\\Admin\\AppData\\Roaming\\Python\\Python38\\site-packages\\pygame\\libtiff-5.dll',
   'BINARY'),
  ('libopus-0.dll',
   'C:\\Users\\Admin\\AppData\\Roaming\\Python\\Python38\\site-packages\\pygame\\libopus-0.dll',
   'BINARY'),
  ('libFLAC-8.dll',
   'C:\\Users\\Admin\\AppData\\Roaming\\Python\\Python38\\site-packages\\pygame\\libFLAC-8.dll',
   'BINARY'),
  ('libwebp-7.dll',
   'C:\\Users\\Admin\\AppData\\Roaming\\Python\\Python38\\site-packages\\pygame\\libwebp-7.dll',
   'BINARY'),
  ('zlib1.dll',
   'C:\\Users\\Admin\\AppData\\Roaming\\Python\\Python38\\site-packages\\pygame\\zlib1.dll',
   'BINARY'),
  ('libvorbisfile-3.dll',
   'C:\\Users\\Admin\\AppData\\Roaming\\Python\\Python38\\site-packages\\pygame\\libvorbisfile-3.dll',
   'BINARY'),
  ('pywintypes38.dll',
   'c:\\users\\admin\\appdata\\local\\programs\\python\\python38\\lib\\site-packages\\pywin32_system32\\pywintypes38.dll',
   'BINARY'),
  ('libopenblas.WCDJNK7YVMPZQ2ME2ZZHJJRJ3JIKNDB7.gfortran-win_amd64.dll',
   'c:\\users\\admin\\appdata\\local\\programs\\python\\python38\\lib\\site-packages\\numpy\\.libs\\libopenblas.WCDJNK7YVMPZQ2ME2ZZHJJRJ3JIKNDB7.gfortran-win_amd64.dll',
   'BINARY'),
  ('SDL2_image.dll',
   'C:\\Users\\Admin\\AppData\\Roaming\\Python\\Python38\\site-packages\\pygame\\SDL2_image.dll',
   'BINARY'),
  ('portmidi.dll',
   'C:\\Users\\Admin\\AppData\\Roaming\\Python\\Python38\\site-packages\\pygame\\portmidi.dll',
   'BINARY'),
  ('libogg-0.dll',
   'C:\\Users\\Admin\\AppData\\Roaming\\Python\\Python38\\site-packages\\pygame\\libogg-0.dll',
   'BINARY'),
  ('libpng16-16.dll',
   'C:\\Users\\Admin\\AppData\\Roaming\\Python\\Python38\\site-packages\\pygame\\libpng16-16.dll',
   'BINARY'),
  ('win32trace',
   'c:\\users\\admin\\appdata\\local\\programs\\python\\python38\\lib\\site-packages\\win32\\win32trace.pyd',
   'EXTENSION'),
  ('win32ui',
   'c:\\users\\admin\\appdata\\local\\programs\\python\\python38\\lib\\site-packages\\Pythonwin\\win32ui.pyd',
   'EXTENSION'),
  ('_lzma',
   'c:\\users\\admin\\appdata\\local\\programs\\python\\python38\\DLLs\\_lzma.pyd',
   'EXTENSION'),
  ('_bz2',
   'c:\\users\\admin\\appdata\\local\\programs\\python\\python38\\DLLs\\_bz2.pyd',
   'EXTENSION'),
  ('unicodedata',
   'c:\\users\\admin\\appdata\\local\\programs\\python\\python38\\DLLs\\unicodedata.pyd',
   'EXTENSION'),
  ('select',
   'c:\\users\\admin\\appdata\\local\\programs\\python\\python38\\DLLs\\select.pyd',
   'EXTENSION'),
  ('_socket',
   'c:\\users\\admin\\appdata\\local\\programs\\python\\python38\\DLLs\\_socket.pyd',
   'EXTENSION'),
  ('_overlapped',
   'c:\\users\\admin\\appdata\\local\\programs\\python\\python38\\DLLs\\_overlapped.pyd',
   'EXTENSION'),
  ('_ssl',
   'c:\\users\\admin\\appdata\\local\\programs\\python\\python38\\DLLs\\_ssl.pyd',
   'EXTENSION'),
  ('_asyncio',
   'c:\\users\\admin\\appdata\\local\\programs\\python\\python38\\DLLs\\_asyncio.pyd',
   'EXTENSION'),
  ('_queue',
   'c:\\users\\admin\\appdata\\local\\programs\\python\\python38\\DLLs\\_queue.pyd',
   'EXTENSION'),
  ('_ctypes',
   'c:\\users\\admin\\appdata\\local\\programs\\python\\python38\\DLLs\\_ctypes.pyd',
   'EXTENSION'),
  ('_multiprocessing',
   'c:\\users\\admin\\appdata\\local\\programs\\python\\python38\\DLLs\\_multiprocessing.pyd',
   'EXTENSION'),
  ('pyexpat',
   'c:\\users\\admin\\appdata\\local\\programs\\python\\python38\\DLLs\\pyexpat.pyd',
   'EXTENSION'),
  ('_decimal',
   'c:\\users\\admin\\appdata\\local\\programs\\python\\python38\\DLLs\\_decimal.pyd',
   'EXTENSION'),
  ('_hashlib',
   'c:\\users\\admin\\appdata\\local\\programs\\python\\python38\\DLLs\\_hashlib.pyd',
   'EXTENSION'),
  ('_win32sysloader',
   'c:\\users\\admin\\appdata\\local\\programs\\python\\python38\\lib\\site-packages\\win32\\_win32sysloader.pyd',
   'EXTENSION'),
  ('win32api',
   'c:\\users\\admin\\appdata\\local\\programs\\python\\python38\\lib\\site-packages\\win32\\win32api.pyd',
   'EXTENSION'),
  ('win32wnet',
   'c:\\users\\admin\\appdata\\local\\programs\\python\\python38\\lib\\site-packages\\win32\\win32wnet.pyd',
   'EXTENSION'),
  ('win32com.shell.shell',
   'c:\\users\\admin\\appdata\\local\\programs\\python\\python38\\lib\\site-packages\\win32comext\\shell\\shell.pyd',
   'EXTENSION'),
  ('numpy.core._multiarray_tests',
   'c:\\users\\admin\\appdata\\local\\programs\\python\\python38\\lib\\site-packages\\numpy\\core\\_multiarray_tests.cp38-win_amd64.pyd',
   'EXTENSION'),
  ('numpy.core._multiarray_umath',
   'c:\\users\\admin\\appdata\\local\\programs\\python\\python38\\lib\\site-packages\\numpy\\core\\_multiarray_umath.cp38-win_amd64.pyd',
   'EXTENSION'),
  ('win32pdh',
   'c:\\users\\admin\\appdata\\local\\programs\\python\\python38\\lib\\site-packages\\win32\\win32pdh.pyd',
   'EXTENSION'),
  ('numpy.linalg.lapack_lite',
   'c:\\users\\admin\\appdata\\local\\programs\\python\\python38\\lib\\site-packages\\numpy\\linalg\\lapack_lite.cp38-win_amd64.pyd',
   'EXTENSION'),
  ('numpy.random.mtrand',
   'c:\\users\\admin\\appdata\\local\\programs\\python\\python38\\lib\\site-packages\\numpy\\random\\mtrand.cp38-win_amd64.pyd',
   'EXTENSION'),
  ('numpy.random._sfc64',
   'c:\\users\\admin\\appdata\\local\\programs\\python\\python38\\lib\\site-packages\\numpy\\random\\_sfc64.cp38-win_amd64.pyd',
   'EXTENSION'),
  ('numpy.random._philox',
   'c:\\users\\admin\\appdata\\local\\programs\\python\\python38\\lib\\site-packages\\numpy\\random\\_philox.cp38-win_amd64.pyd',
   'EXTENSION'),
  ('numpy.random._pcg64',
   'c:\\users\\admin\\appdata\\local\\programs\\python\\python38\\lib\\site-packages\\numpy\\random\\_pcg64.cp38-win_amd64.pyd',
   'EXTENSION'),
  ('numpy.random._mt19937',
   'c:\\users\\admin\\appdata\\local\\programs\\python\\python38\\lib\\site-packages\\numpy\\random\\_mt19937.cp38-win_amd64.pyd',
   'EXTENSION'),
  ('numpy.random.bit_generator',
   'c:\\users\\admin\\appdata\\local\\programs\\python\\python38\\lib\\site-packages\\numpy\\random\\bit_generator.cp38-win_amd64.pyd',
   'EXTENSION'),
  ('numpy.random._generator',
   'c:\\users\\admin\\appdata\\local\\programs\\python\\python38\\lib\\site-packages\\numpy\\random\\_generator.cp38-win_amd64.pyd',
   'EXTENSION'),
  ('numpy.random._bounded_integers',
   'c:\\users\\admin\\appdata\\local\\programs\\python\\python38\\lib\\site-packages\\numpy\\random\\_bounded_integers.cp38-win_amd64.pyd',
   'EXTENSION'),
  ('numpy.random._common',
   'c:\\users\\admin\\appdata\\local\\programs\\python\\python38\\lib\\site-packages\\numpy\\random\\_common.cp38-win_amd64.pyd',
   'EXTENSION'),
  ('numpy.fft._pocketfft_internal',
   'c:\\users\\admin\\appdata\\local\\programs\\python\\python38\\lib\\site-packages\\numpy\\fft\\_pocketfft_internal.cp38-win_amd64.pyd',
   'EXTENSION'),
  ('numpy.linalg._umath_linalg',
   'c:\\users\\admin\\appdata\\local\\programs\\python\\python38\\lib\\site-packages\\numpy\\linalg\\_umath_linalg.cp38-win_amd64.pyd',
   'EXTENSION'),
  ('pygame.imageext',
   'C:\\Users\\Admin\\AppData\\Roaming\\Python\\Python38\\site-packages\\pygame\\imageext.cp38-win_amd64.pyd',
   'EXTENSION'),
  ('pygame.fastevent',
   'C:\\Users\\Admin\\AppData\\Roaming\\Python\\Python38\\site-packages\\pygame\\fastevent.cp38-win_amd64.pyd',
   'EXTENSION'),
  ('pygame.scrap',
   'C:\\Users\\Admin\\AppData\\Roaming\\Python\\Python38\\site-packages\\pygame\\scrap.cp38-win_amd64.pyd',
   'EXTENSION'),
  ('pygame.mixer',
   'C:\\Users\\Admin\\AppData\\Roaming\\Python\\Python38\\site-packages\\pygame\\mixer.cp38-win_amd64.pyd',
   'EXTENSION'),
  ('pygame.mixer_music',
   'C:\\Users\\Admin\\AppData\\Roaming\\Python\\Python38\\site-packages\\pygame\\mixer_music.cp38-win_amd64.pyd',
   'EXTENSION'),
  ('_elementtree',
   'c:\\users\\admin\\appdata\\local\\programs\\python\\python38\\DLLs\\_elementtree.pyd',
   'EXTENSION'),
  ('pygame.font',
   'C:\\Users\\Admin\\AppData\\Roaming\\Python\\Python38\\site-packages\\pygame\\font.cp38-win_amd64.pyd',
   'EXTENSION'),
  ('pygame._freetype',
   'C:\\Users\\Admin\\AppData\\Roaming\\Python\\Python38\\site-packages\\pygame\\_freetype.cp38-win_amd64.pyd',
   'EXTENSION'),
  ('pygame.transform',
   'C:\\Users\\Admin\\AppData\\Roaming\\Python\\Python38\\site-packages\\pygame\\transform.cp38-win_amd64.pyd',
   'EXTENSION'),
  ('pygame.time',
   'C:\\Users\\Admin\\AppData\\Roaming\\Python\\Python38\\site-packages\\pygame\\time.cp38-win_amd64.pyd',
   'EXTENSION'),
  ('pygame.pixelarray',
   'C:\\Users\\Admin\\AppData\\Roaming\\Python\\Python38\\site-packages\\pygame\\pixelarray.cp38-win_amd64.pyd',
   'EXTENSION'),
  ('pygame.mask',
   'C:\\Users\\Admin\\AppData\\Roaming\\Python\\Python38\\site-packages\\pygame\\mask.cp38-win_amd64.pyd',
   'EXTENSION'),
  ('pygame.surface',
   'C:\\Users\\Admin\\AppData\\Roaming\\Python\\Python38\\site-packages\\pygame\\surface.cp38-win_amd64.pyd',
   'EXTENSION'),
  ('pygame.pixelcopy',
   'C:\\Users\\Admin\\AppData\\Roaming\\Python\\Python38\\site-packages\\pygame\\pixelcopy.cp38-win_amd64.pyd',
   'EXTENSION'),
  ('pygame.mouse',
   'C:\\Users\\Admin\\AppData\\Roaming\\Python\\Python38\\site-packages\\pygame\\mouse.cp38-win_amd64.pyd',
   'EXTENSION'),
  ('pygame.key',
   'C:\\Users\\Admin\\AppData\\Roaming\\Python\\Python38\\site-packages\\pygame\\key.cp38-win_amd64.pyd',
   'EXTENSION'),
  ('pygame.joystick',
   'C:\\Users\\Admin\\AppData\\Roaming\\Python\\Python38\\site-packages\\pygame\\joystick.cp38-win_amd64.pyd',
   'EXTENSION'),
  ('pygame.image',
   'C:\\Users\\Admin\\AppData\\Roaming\\Python\\Python38\\site-packages\\pygame\\image.cp38-win_amd64.pyd',
   'EXTENSION'),
  ('pygame.event',
   'C:\\Users\\Admin\\AppData\\Roaming\\Python\\Python38\\site-packages\\pygame\\event.cp38-win_amd64.pyd',
   'EXTENSION'),
  ('pygame.draw',
   'C:\\Users\\Admin\\AppData\\Roaming\\Python\\Python38\\site-packages\\pygame\\draw.cp38-win_amd64.pyd',
   'EXTENSION'),
  ('pygame.display',
   'C:\\Users\\Admin\\AppData\\Roaming\\Python\\Python38\\site-packages\\pygame\\display.cp38-win_amd64.pyd',
   'EXTENSION'),
  ('pygame.math',
   'C:\\Users\\Admin\\AppData\\Roaming\\Python\\Python38\\site-packages\\pygame\\math.cp38-win_amd64.pyd',
   'EXTENSION'),
  ('pygame.bufferproxy',
   'C:\\Users\\Admin\\AppData\\Roaming\\Python\\Python38\\site-packages\\pygame\\bufferproxy.cp38-win_amd64.pyd',
   'EXTENSION'),
  ('pygame.color',
   'C:\\Users\\Admin\\AppData\\Roaming\\Python\\Python38\\site-packages\\pygame\\color.cp38-win_amd64.pyd',
   'EXTENSION'),
  ('pygame.surflock',
   'C:\\Users\\Admin\\AppData\\Roaming\\Python\\Python38\\site-packages\\pygame\\surflock.cp38-win_amd64.pyd',
   'EXTENSION'),
  ('pygame.rwobject',
   'C:\\Users\\Admin\\AppData\\Roaming\\Python\\Python38\\site-packages\\pygame\\rwobject.cp38-win_amd64.pyd',
   'EXTENSION'),
  ('pygame.rect',
   'C:\\Users\\Admin\\AppData\\Roaming\\Python\\Python38\\site-packages\\pygame\\rect.cp38-win_amd64.pyd',
   'EXTENSION'),
  ('pygame.constants',
   'C:\\Users\\Admin\\AppData\\Roaming\\Python\\Python38\\site-packages\\pygame\\constants.cp38-win_amd64.pyd',
   'EXTENSION'),
  ('pygame.base',
   'C:\\Users\\Admin\\AppData\\Roaming\\Python\\Python38\\site-packages\\pygame\\base.cp38-win_amd64.pyd',
   'EXTENSION'),
  ('mfc140u.dll',
   'c:\\users\\admin\\appdata\\local\\programs\\python\\python38\\lib\\site-packages\\Pythonwin\\mfc140u.dll',
   'BINARY'),
  ('libcrypto-1_1.dll',
   'c:\\users\\admin\\appdata\\local\\programs\\python\\python38\\DLLs\\libcrypto-1_1.dll',
   'BINARY'),
  ('libssl-1_1.dll',
   'c:\\users\\admin\\appdata\\local\\programs\\python\\python38\\DLLs\\libssl-1_1.dll',
   'BINARY'),
  ('libffi-7.dll',
   'c:\\users\\admin\\appdata\\local\\programs\\python\\python38\\DLLs\\libffi-7.dll',
   'BINARY'),
  ('base_library.zip',
   'D:\\chess AI\\BigProject\\Chess\\build\\Main\\base_library.zip',
   'DATA'),
  ('pygame\\freesansbold.ttf',
   'C:\\Users\\Admin\\AppData\\Roaming\\Python\\Python38\\site-packages\\pygame\\freesansbold.ttf',
   'DATA'),
  ('pygame\\pygame_icon.bmp',
   'C:\\Users\\Admin\\AppData\\Roaming\\Python\\Python38\\site-packages\\pygame\\pygame_icon.bmp',
   'DATA'),
  ('pyinstaller-4.5.1.dist-info\\REQUESTED',
   'c:\\users\\admin\\appdata\\local\\programs\\python\\python38\\lib\\site-packages\\pyinstaller-4.5.1.dist-info\\REQUESTED',
   'DATA'),
  ('setuptools-49.2.1.dist-info\\LICENSE',
   'c:\\users\\admin\\appdata\\local\\programs\\python\\python38\\lib\\site-packages\\setuptools-49.2.1.dist-info\\LICENSE',
   'DATA'),
  ('wheel-0.36.2.dist-info\\INSTALLER',
   'c:\\users\\admin\\appdata\\local\\programs\\python\\python38\\lib\\site-packages\\wheel-0.36.2.dist-info\\INSTALLER',
   'DATA'),
  ('pyinstaller-4.5.1.dist-info\\entry_points.txt',
   'c:\\users\\admin\\appdata\\local\\programs\\python\\python38\\lib\\site-packages\\pyinstaller-4.5.1.dist-info\\entry_points.txt',
   'DATA'),
  ('setuptools-49.2.1.dist-info\\METADATA',
   'c:\\users\\admin\\appdata\\local\\programs\\python\\python38\\lib\\site-packages\\setuptools-49.2.1.dist-info\\METADATA',
   'DATA'),
  ('wheel-0.36.2.dist-info\\METADATA',
   'c:\\users\\admin\\appdata\\local\\programs\\python\\python38\\lib\\site-packages\\wheel-0.36.2.dist-info\\METADATA',
   'DATA'),
  ('pip-21.0.1.dist-info\\entry_points.txt',
   'c:\\users\\admin\\appdata\\local\\programs\\python\\python38\\lib\\site-packages\\pip-21.0.1.dist-info\\entry_points.txt',
   'DATA'),
  ('pyinstaller-4.5.1.dist-info\\METADATA',
   'c:\\users\\admin\\appdata\\local\\programs\\python\\python38\\lib\\site-packages\\pyinstaller-4.5.1.dist-info\\METADATA',
   'DATA'),
  ('altgraph-0.17.2.dist-info\\METADATA',
   'c:\\users\\admin\\appdata\\local\\programs\\python\\python38\\lib\\site-packages\\altgraph-0.17.2.dist-info\\METADATA',
   'DATA'),
  ('pip-21.0.1.dist-info\\RECORD',
   'c:\\users\\admin\\appdata\\local\\programs\\python\\python38\\lib\\site-packages\\pip-21.0.1.dist-info\\RECORD',
   'DATA'),
  ('wheel-0.36.2.dist-info\\top_level.txt',
   'c:\\users\\admin\\appdata\\local\\programs\\python\\python38\\lib\\site-packages\\wheel-0.36.2.dist-info\\top_level.txt',
   'DATA'),
  ('setuptools-49.2.1.dist-info\\INSTALLER',
   'c:\\users\\admin\\appdata\\local\\programs\\python\\python38\\lib\\site-packages\\setuptools-49.2.1.dist-info\\INSTALLER',
   'DATA'),
  ('wheel-0.36.2.dist-info\\LICENSE.txt',
   'c:\\users\\admin\\appdata\\local\\programs\\python\\python38\\lib\\site-packages\\wheel-0.36.2.dist-info\\LICENSE.txt',
   'DATA'),
  ('altgraph-0.17.2.dist-info\\WHEEL',
   'c:\\users\\admin\\appdata\\local\\programs\\python\\python38\\lib\\site-packages\\altgraph-0.17.2.dist-info\\WHEEL',
   'DATA'),
  ('altgraph-0.17.2.dist-info\\top_level.txt',
   'c:\\users\\admin\\appdata\\local\\programs\\python\\python38\\lib\\site-packages\\altgraph-0.17.2.dist-info\\top_level.txt',
   'DATA'),
  ('setuptools-49.2.1.dist-info\\zip-safe',
   'c:\\users\\admin\\appdata\\local\\programs\\python\\python38\\lib\\site-packages\\setuptools-49.2.1.dist-info\\zip-safe',
   'DATA'),
  ('pip-21.0.1.dist-info\\LICENSE.txt',
   'c:\\users\\admin\\appdata\\local\\programs\\python\\python38\\lib\\site-packages\\pip-21.0.1.dist-info\\LICENSE.txt',
   'DATA'),
  ('altgraph-0.17.2.dist-info\\INSTALLER',
   'c:\\users\\admin\\appdata\\local\\programs\\python\\python38\\lib\\site-packages\\altgraph-0.17.2.dist-info\\INSTALLER',
   'DATA'),
  ('setuptools-49.2.1.dist-info\\REQUESTED',
   'c:\\users\\admin\\appdata\\local\\programs\\python\\python38\\lib\\site-packages\\setuptools-49.2.1.dist-info\\REQUESTED',
   'DATA'),
  ('wheel-0.36.2.dist-info\\WHEEL',
   'c:\\users\\admin\\appdata\\local\\programs\\python\\python38\\lib\\site-packages\\wheel-0.36.2.dist-info\\WHEEL',
   'DATA'),
  ('wheel-0.36.2.dist-info\\entry_points.txt',
   'c:\\users\\admin\\appdata\\local\\programs\\python\\python38\\lib\\site-packages\\wheel-0.36.2.dist-info\\entry_points.txt',
   'DATA'),
  ('pip-21.0.1.dist-info\\top_level.txt',
   'c:\\users\\admin\\appdata\\local\\programs\\python\\python38\\lib\\site-packages\\pip-21.0.1.dist-info\\top_level.txt',
   'DATA'),
  ('wheel-0.36.2.dist-info\\RECORD',
   'c:\\users\\admin\\appdata\\local\\programs\\python\\python38\\lib\\site-packages\\wheel-0.36.2.dist-info\\RECORD',
   'DATA'),
  ('wheel-0.36.2.dist-info\\REQUESTED',
   'c:\\users\\admin\\appdata\\local\\programs\\python\\python38\\lib\\site-packages\\wheel-0.36.2.dist-info\\REQUESTED',
   'DATA'),
  ('altgraph-0.17.2.dist-info\\RECORD',
   'c:\\users\\admin\\appdata\\local\\programs\\python\\python38\\lib\\site-packages\\altgraph-0.17.2.dist-info\\RECORD',
   'DATA'),
  ('pyinstaller-4.5.1.dist-info\\WHEEL',
   'c:\\users\\admin\\appdata\\local\\programs\\python\\python38\\lib\\site-packages\\pyinstaller-4.5.1.dist-info\\WHEEL',
   'DATA'),
  ('altgraph-0.17.2.dist-info\\LICENSE',
   'c:\\users\\admin\\appdata\\local\\programs\\python\\python38\\lib\\site-packages\\altgraph-0.17.2.dist-info\\LICENSE',
   'DATA'),
  ('setuptools-49.2.1.dist-info\\top_level.txt',
   'c:\\users\\admin\\appdata\\local\\programs\\python\\python38\\lib\\site-packages\\setuptools-49.2.1.dist-info\\top_level.txt',
   'DATA'),
  ('pyinstaller-4.5.1.dist-info\\RECORD',
   'c:\\users\\admin\\appdata\\local\\programs\\python\\python38\\lib\\site-packages\\pyinstaller-4.5.1.dist-info\\RECORD',
   'DATA'),
  ('altgraph-0.17.2.dist-info\\zip-safe',
   'c:\\users\\admin\\appdata\\local\\programs\\python\\python38\\lib\\site-packages\\altgraph-0.17.2.dist-info\\zip-safe',
   'DATA'),
  ('setuptools-49.2.1.dist-info\\dependency_links.txt',
   'c:\\users\\admin\\appdata\\local\\programs\\python\\python38\\lib\\site-packages\\setuptools-49.2.1.dist-info\\dependency_links.txt',
   'DATA'),
  ('setuptools-49.2.1.dist-info\\entry_points.txt',
   'c:\\users\\admin\\appdata\\local\\programs\\python\\python38\\lib\\site-packages\\setuptools-49.2.1.dist-info\\entry_points.txt',
   'DATA'),
  ('pip-21.0.1.dist-info\\WHEEL',
   'c:\\users\\admin\\appdata\\local\\programs\\python\\python38\\lib\\site-packages\\pip-21.0.1.dist-info\\WHEEL',
   'DATA'),
  ('pip-21.0.1.dist-info\\INSTALLER',
   'c:\\users\\admin\\appdata\\local\\programs\\python\\python38\\lib\\site-packages\\pip-21.0.1.dist-info\\INSTALLER',
   'DATA'),
  ('pyinstaller-4.5.1.dist-info\\INSTALLER',
   'c:\\users\\admin\\appdata\\local\\programs\\python\\python38\\lib\\site-packages\\pyinstaller-4.5.1.dist-info\\INSTALLER',
   'DATA'),
  ('pip-21.0.1.dist-info\\METADATA',
   'c:\\users\\admin\\appdata\\local\\programs\\python\\python38\\lib\\site-packages\\pip-21.0.1.dist-info\\METADATA',
   'DATA'),
  ('pyinstaller-4.5.1.dist-info\\COPYING.txt',
   'c:\\users\\admin\\appdata\\local\\programs\\python\\python38\\lib\\site-packages\\pyinstaller-4.5.1.dist-info\\COPYING.txt',
   'DATA'),
  ('setuptools-49.2.1.dist-info\\RECORD',
   'c:\\users\\admin\\appdata\\local\\programs\\python\\python38\\lib\\site-packages\\setuptools-49.2.1.dist-info\\RECORD',
   'DATA'),
  ('setuptools-49.2.1.dist-info\\WHEEL',
   'c:\\users\\admin\\appdata\\local\\programs\\python\\python38\\lib\\site-packages\\setuptools-49.2.1.dist-info\\WHEEL',
   'DATA'),
  ('pyinstaller-4.5.1.dist-info\\top_level.txt',
   'c:\\users\\admin\\appdata\\local\\programs\\python\\python38\\lib\\site-packages\\pyinstaller-4.5.1.dist-info\\top_level.txt',
   'DATA'),
  ('pip-21.0.1.dist-info\\REQUESTED',
   'c:\\users\\admin\\appdata\\local\\programs\\python\\python38\\lib\\site-packages\\pip-21.0.1.dist-info\\REQUESTED',
   'DATA')],)
