('D:\\chess AI\\BigProject\\Chess\\build\\Main\\PKG-00.pkg',
 {'BINARY': 1,
  'DATA': 1,
  'EXECUTABLE': 1,
  'EXTENSION': 1,
  'PYMODULE': 1,
  'PYSOURCE': 1,
  'PYZ': 0,
  'SPLASH': 1},
 [('PYZ-00.pyz',
   'D:\\chess AI\\BigProject\\Chess\\build\\Main\\PYZ-00.pyz',
   'PYZ'),
  ('struct',
   'c:\\users\\admin\\appdata\\local\\programs\\python\\python38\\lib\\struct.pyo',
   'PYMODULE'),
  ('pyimod01_os_path',
   'c:\\users\\admin\\appdata\\local\\programs\\python\\python38\\lib\\site-packages\\PyInstaller\\loader\\pyimod01_os_path.pyc',
   'PYMODULE'),
  ('pyimod02_archive',
   'c:\\users\\admin\\appdata\\local\\programs\\python\\python38\\lib\\site-packages\\PyInstaller\\loader\\pyimod02_archive.pyc',
   'PYMODULE'),
  ('pyimod03_importers',
   'c:\\users\\admin\\appdata\\local\\programs\\python\\python38\\lib\\site-packages\\PyInstaller\\loader\\pyimod03_importers.pyc',
   'PYMODULE'),
  ('pyimod04_ctypes',
   'c:\\users\\admin\\appdata\\local\\programs\\python\\python38\\lib\\site-packages\\PyInstaller\\loader\\pyimod04_ctypes.pyc',
   'PYMODULE'),
  ('pyiboot01_bootstrap',
   'c:\\users\\admin\\appdata\\local\\programs\\python\\python38\\lib\\site-packages\\PyInstaller\\loader\\pyiboot01_bootstrap.py',
   'PYSOURCE'),
  ('pyi_rth_pkgutil',
   'C:\\Users\\Admin\\AppData\\Local\\Programs\\Python\\Python38\\Lib\\site-packages\\PyInstaller\\hooks\\rthooks\\pyi_rth_pkgutil.py',
   'PYSOURCE'),
  ('pyi_rth_multiprocessing',
   'C:\\Users\\Admin\\AppData\\Local\\Programs\\Python\\Python38\\Lib\\site-packages\\PyInstaller\\hooks\\rthooks\\pyi_rth_multiprocessing.py',
   'PYSOURCE'),
  ('pyi_rth_inspect',
   'C:\\Users\\Admin\\AppData\\Local\\Programs\\Python\\Python38\\Lib\\site-packages\\PyInstaller\\hooks\\rthooks\\pyi_rth_inspect.py',
   'PYSOURCE'),
  ('pyi_rth_pkgres',
   'C:\\Users\\Admin\\AppData\\Local\\Programs\\Python\\Python38\\Lib\\site-packages\\PyInstaller\\hooks\\rthooks\\pyi_rth_pkgres.py',
   'PYSOURCE'),
  ('pyi_rth_win32api',
   'C:\\Users\\Admin\\AppData\\Local\\Programs\\Python\\Python38\\Lib\\site-packages\\PyInstaller\\hooks\\rthooks\\pyi_rth_win32api.py',
   'PYSOURCE'),
  ('pyi_rth_win32comgenpy',
   'C:\\Users\\Admin\\AppData\\Local\\Programs\\Python\\Python38\\Lib\\site-packages\\PyInstaller\\hooks\\rthooks\\pyi_rth_win32comgenpy.py',
   'PYSOURCE'),
  ('Main', 'D:\\chess AI\\BigProject\\Chess\\Main.py', 'PYSOURCE'),
  ('Main.exe.manifest',
   'D:\\chess AI\\BigProject\\Chess\\build\\Main\\Main.exe.manifest',
   'BINARY')],
 True,
 False,
 False,
 [],
 None,
 None,
 None)
